﻿idade;FaixaEtaria
0;0 a 9 anos
1;0 a 9 anos
2;0 a 9 anos
3;0 a 9 anos
4;0 a 9 anos
5;0 a 9 anos
6;0 a 9 anos
7;0 a 9 anos
8;0 a 9 anos
9;0 a 9 anos
10;10 a 19 anos
11;10 a 19 anos
12;10 a 19 anos
13;10 a 19 anos
14;10 a 19 anos
15;10 a 19 anos
16;10 a 19 anos
17;10 a 19 anos
18;10 a 19 anos
19;10 a 19 anos
20;20 a 29 anos
21;20 a 29 anos
22;20 a 29 anos
23;20 a 29 anos
24;20 a 29 anos
25;20 a 29 anos
26;20 a 29 anos
27;20 a 29 anos
28;20 a 29 anos
29;20 a 29 anos
30;30 a 39 anos
31;30 a 39 anos
32;30 a 39 anos
33;30 a 39 anos
34;30 a 39 anos
35;30 a 39 anos
36;30 a 39 anos
37;30 a 39 anos
38;30 a 39 anos
39;30 a 39 anos
40;40 a 49 anos
41;40 a 49 anos
42;40 a 49 anos
43;40 a 49 anos
44;40 a 49 anos
45;40 a 49 anos
46;40 a 49 anos
47;40 a 49 anos
48;40 a 49 anos
49;40 a 49 anos
50;50 a 59 anos
51;50 a 59 anos
52;50 a 59 anos
53;50 a 59 anos
54;50 a 59 anos
55;50 a 59 anos
56;50 a 59 anos
57;50 a 59 anos
58;50 a 59 anos
59;50 a 59 anos
60;60 a 69 anos
61;60 a 69 anos
62;60 a 69 anos
63;60 a 69 anos
64;60 a 69 anos
65;60 a 69 anos
66;60 a 69 anos
67;60 a 69 anos
68;60 a 69 anos
69;60 a 69 anos
70;70 a 79 anos
71;70 a 79 anos
72;70 a 79 anos
73;70 a 79 anos
74;70 a 79 anos
75;70 a 79 anos
76;70 a 79 anos
77;70 a 79 anos
78;70 a 79 anos
79;70 a 79 anos
80;80 a 89 anos
81;80 a 89 anos
82;80 a 89 anos
83;80 a 89 anos
84;80 a 89 anos
85;80 a 89 anos
86;80 a 89 anos
87;80 a 89 anos
88;80 a 89 anos
89;80 a 89 anos
90;90 anos ou mais
91;90 anos ou mais
92;90 anos ou mais
93;90 anos ou mais
94;90 anos ou mais
95;90 anos ou mais
96;90 anos ou mais
97;90 anos ou mais
98;90 anos ou mais
99;90 anos ou mais
100;90 anos ou mais
101;90 anos ou mais
102;90 anos ou mais
103;90 anos ou mais
104;90 anos ou mais
105;90 anos ou mais
106;90 anos ou mais
107;90 anos ou mais
108;90 anos ou mais
109;90 anos ou mais
110;90 anos ou mais
111;90 anos ou mais
112;90 anos ou mais
113;90 anos ou mais
114;90 anos ou mais
115;90 anos ou mais
116;90 anos ou mais
117;90 anos ou mais
118;90 anos ou mais
119;90 anos ou mais
120;90 anos ou mais
121;90 anos ou mais
122;90 anos ou mais
123;90 anos ou mais
124;90 anos ou mais
125;90 anos ou mais
126;90 anos ou mais
127;90 anos ou mais
128;90 anos ou mais
129;90 anos ou mais
130;90 anos ou mais
131;90 anos ou mais
132;90 anos ou mais
133;90 anos ou mais
134;90 anos ou mais
135;90 anos ou mais
136;90 anos ou mais
137;90 anos ou mais
138;90 anos ou mais
139;90 anos ou mais
140;90 anos ou mais
141;90 anos ou mais
142;90 anos ou mais
143;90 anos ou mais
144;90 anos ou mais
145;90 anos ou mais
146;90 anos ou mais
147;90 anos ou mais
148;90 anos ou mais
149;90 anos ou mais
150;90 anos ou mais
