﻿TP_ENSINO;ENSINO;
1;Ensino Regular;
;Sem Descrição;
2;Educação Especial;
3;Educação de Jovens e adultos;
;;
;;
;;
;;
;;
;;
;;
;;
;;
;;
;;
;;
;;
;;
;;
;;
;;
;;
;;
;;
;;
;;
;;
;;
;;
;;
;;
;;
;;
;;
;;
;;
;;
;;
;;
;;
;;
;;
;;
;;
;;
;;
