﻿Codigo INEP;Ano;UF;Município;Escola;Rede;Taxa de participação;Participantes;Dados são representativos;Ciências Humanas;Ciências da Natureza;Linguagens e Códigos;Matemática;Redação
35240936;2019;SP;Santana de Parnaíba;ABELARDO MARQUES DA SILVA;Todas;42,59%;69;Não;468,1;437;499,2;471;521,5
35273648;2019;SP;Santana de Parnaíba;ALDONIO RAMOS TEIXEIRA PROFESSOR;Todas;34,78%;48;Não;476,8;440,9;508,4;475,9;520
35273661;2019;SP;Santana de Parnaíba;ANA APARECIDA SANT ANA PROFESSORA;Todas;42,57%;43;Não;489;449,4;504,3;481,5;531,2
35273659;2019;SP;Santana de Parnaíba;ANACLETO DE CAMARGO PADRE;Todas;47,20%;59;Não;492,4;444;513,8;488,4;528,8
35273636;2019;SP;Santana de Parnaíba;AURELIO GIANINI TEIXEIRA;Todas;70,83%;17;Sim;487,7;458,4;521,8;506,6;545,9
35273673;2019;SP;Santana de Parnaíba;CARLOS ALBERTO DE SIQUEIRA PROFESSOR;Todas;35,56%;80;Não;485;451,2;505,8;479;514,8
35369226;2019;SP;Santana de Parnaíba;CASTANHEIRAS;Todas;34,48%;10;Não;572,4;517,4;575,7;652,4;726
35140089;2019;SP;Santana de Parnaíba;FERNAO GAIVOTA ESCOLA DE ENS FUNDAMENTAL MEDIO E ED INFANTIL;Todas;26,32%;5;Não;509;539,6;555,8;689,7;668
35240941;2019;SP;Santana de Parnaíba;GASPAR DE GODOI COLACO TTE GENERAL;Todas;38,64%;114;Não;478,3;452,7;490,4;498,5;506,8
35273685;2019;SP;Santana de Parnaíba;LEDA CAIRA PROFESSORA;Todas;37,86%;39;Não;451,4;435,7;494,2;448,4;541,5
35218112;2019;SP;Santana de Parnaíba;MANOEL JACOB CREMM;Todas;54,17%;13;Sim;511,1;465,2;537,3;512,2;589,2
35278853;2019;SP;Santana de Parnaíba;MARIO COVAS JUNIOR GOVERNADOR;Todas;43,75%;28;Não;466,5;448,9;481,9;474,8;540
35121721;2019;SP;Santana de Parnaíba;MORUMBI DE ALPHAVILLE;Todas;48,28%;14;Não;599,4;546,2;589;716,8;728,6
35141367;2019;SP;Santana de Parnaíba;OBJETIVO COLEGIO UNIDADE ALPHAVILLE;Todas;69,53%;89;Sim;576,3;559,3;575;644,2;658,9
35276170;2019;SP;Santana de Parnaíba;PAULO OCTAVIO BOTELHO DOUTOR;Todas;35,56%;16;Não;505,2;456,3;531,3;518,4;598,8
35153163;2019;SP;Santana de Parnaíba;PENTAGONO COLEGIO UNIDADE ALPHAVILLE;Todas;79,17%;19;Sim;631,6;604,5;613,4;770,1;834,7
35240916;2019;SP;Santana de Parnaíba;RICARDA DOS SANTOS BRANCO PROFESSORA;Todas;30,36%;17;Não;461,5;451;508,8;496;521,2
35419576;2019;SP;Santana de Parnaíba;SESI 433;Todas;87,50%;28;Sim;538,1;493,6;560,1;561;670
35192880;2019;SP;Santana de Parnaíba;TEOTONIO VILELA SENADOR;Todas;24,44%;11;Não;495,6;451,8;497,7;512,1;418,2
35056169;2019;SP;Santana de Parnaíba;ULYSSES SILVEIRA GUIMARAES DEPUTADO;Todas;38,54%;37;Não;482,2;444;507,3;494,7;534,1
35141355;2019;SP;Santana de Parnaíba;UNIVERSITARIO ALPHAVILLE COLEGIO;Todas;8,70%;2;Não;490,4;469;500,9;486,4;500
