﻿Ano;CodINEP;Escola;UF;Município;Rede;Taxa de participação;Participantes;Dados são representativos;Ciências Humanas;Ciências da Natureza;Linguagens e Códigos;Matemática;Redação
2013;35121721;MORUMBI DE ALPHAVILLE;SP;Santana de Parnaíba;Todas;75,00%;12;Sim;613,1;524,9;577,3;626;621,3
2013;35140089;FERNAO GAIVOTA ESCOLA DE ENS FUNDAMENTAL MEDIO E ED INFANTIL;SP;Santana de Parnaíba;Todas;70,00%;7;Não;574,6;537,2;547;628,2;634,3
2013;35141367;OBJETIVO COLEGIO UNIDADE ALPHAVILLE;SP;Santana de Parnaíba;Todas;78,13%;75;Sim;596,4;559,5;560;612;625,9
2013;35153163;PENTAGONO COLEGIO UNIDADE ALPHAVILLE;SP;Santana de Parnaíba;Todas;85,71%;48;Sim;639,4;610,5;591,4;697,1;716,7
2013;35240941;GASPAR DE GODOI COLACO TTE GENERAL;SP;Santana de Parnaíba;Todas;55,65%;64;Sim;513,5;463,9;494,2;492,7;516,4
2013;35273648;ALDONIO RAMOS TEIXEIRA PROFESSOR;SP;Santana de Parnaíba;Todas;52,80%;85;Sim;487,1;444,9;463,7;487,1;472,5
2013;35273661;ANA APARECIDA SANT ANA PROFESSORA;SP;Santana de Parnaíba;Todas;58,59%;58;Sim;491,2;442,7;455,3;448,6;499
2013;35276170;PAULO OCTAVIO BOTELHO DOUTOR;SP;Santana de Parnaíba;Todas;51,90%;41;Sim;480,1;443,3;439,5;461,8;396,1
2013;35278853;MARIO COVAS JUNIOR GOVERNADOR;SP;Santana de Parnaíba;Todas;56,52%;13;Sim;507,2;442,1;484,5;481,4;513,9
2013;35405346;ERMELINDA GIANNINI TEIXEIRA PROFESSORA ETEC;SP;Santana de Parnaíba;Todas;76,77%;76;Sim;538;476,7;530,9;542,7;562,4
2013;35419576;SESI 433;SP;Santana de Parnaíba;Todas;82,69%;43;Sim;524,1;477,7;515,6;511,6;509,8
2013;35286989;CELINA DA COSTA MACHADO SILVA DONA;SP;Santana de Parnaíba;Todas;63,16%;12;Sim;506,9;442;474,8;477,7;470
2013;35287350;PAPA JOAO PAULO II;SP;Santana de Parnaíba;Todas;76,47%;13;Sim;469,4;448,7;458,1;426,4;473,9
2013;35276182;REINALDO ASCENCIO SANTOS FERREIRA VEREADOR;SP;Santana de Parnaíba;Todas;61,11%;33;Sim;488,6;442,7;464,4;483,2;490,9
2013;35207718;TOM JOBIM;SP;Santana de Parnaíba;Todas;56,10%;23;Sim;552,4;488,9;544,9;548;588,7
2014;35121721;MORUMBI DE ALPHAVILLE;SP;Santana de Parnaíba;Todas;68,75%;22;Sim;624,4;574,2;567,9;626,7;613,6
2014;35141367;OBJETIVO COLEGIO UNIDADE ALPHAVILLE;SP;Santana de Parnaíba;Todas;83,17%;84;Sim;626;584,2;588,4;611,2;591,3
2014;35153163;PENTAGONO COLEGIO UNIDADE ALPHAVILLE;SP;Santana de Parnaíba;Todas;65,12%;28;Sim;640,1;608;602,7;680,8;778,6
2014;35240936;ABELARDO MARQUES DA SILVA;SP;Santana de Parnaíba;Todas;52,00%;65;Sim;513;460,9;484,7;455,3;455,1
2014;35240941;GASPAR DE GODOI COLACO TTE GENERAL;SP;Santana de Parnaíba;Todas;54,74%;75;Sim;541,5;472,3;513,5;462,2;483,5
2014;35273648;ALDONIO RAMOS TEIXEIRA PROFESSOR;SP;Santana de Parnaíba;Todas;53,89%;104;Sim;531,1;463,2;495,7;451,9;456,7
2014;35273659;ANACLETO DE CAMARGO PADRE;SP;Santana de Parnaíba;Todas;69,52%;73;Sim;528,1;477;501,8;474,6;489,3
2014;35276170;PAULO OCTAVIO BOTELHO DOUTOR;SP;Santana de Parnaíba;Todas;57,14%;28;Sim;529,3;471,4;499,2;456,7;482,9
2014;35278853;MARIO COVAS JUNIOR GOVERNADOR;SP;Santana de Parnaíba;Todas;52,78%;19;Sim;507,2;448;493,4;415,6;441,1
2014;35405346;ERMELINDA GIANNINI TEIXEIRA PROFESSORA ETEC;SP;Santana de Parnaíba;Todas;90,16%;55;Sim;608,3;504,4;565,2;523,9;610,2
2014;35419576;SESI 433;SP;Santana de Parnaíba;Todas;93,33%;28;Sim;584,3;517;541;494,6;587,9
2014;35286989;CELINA DA COSTA MACHADO SILVA DONA;SP;Santana de Parnaíba;Todas;64,71%;11;Sim;511,3;490,9;486,8;453,5;538,2
2014;35287350;PAPA JOAO PAULO II;SP;Santana de Parnaíba;Todas;68,75%;11;Sim;501,5;444,3;484,4;412,2;454,6
2015;35121721;MORUMBI DE ALPHAVILLE;SP;Santana de Parnaíba;Todas;82,05%;32;Sim;650,1;600,5;600,4;653,3;708,1
2015;35141367;OBJETIVO COLEGIO UNIDADE ALPHAVILLE;SP;Santana de Parnaíba;Todas;81,20%;95;Sim;623,7;552,3;572,3;580,9;605,5
2015;35153163;PENTAGONO COLEGIO UNIDADE ALPHAVILLE;SP;Santana de Parnaíba;Todas;87,50%;35;Sim;636,4;574,8;586,1;674,9;762,9
2015;35218112;MANOEL JACOB CREMM;SP;Santana de Parnaíba;Todas;61,11%;11;Sim;530,2;440,6;504,3;447,1;507,3
2015;35240916;RICARDA DOS SANTOS BRANCO PROFESSORA;SP;Santana de Parnaíba;Todas;62,96%;34;Sim;526,8;454,3;474,5;450,4;493,5
2015;35240936;ABELARDO MARQUES DA SILVA;SP;Santana de Parnaíba;Todas;54,48%;73;Sim;531,9;458,7;493,9;430,9;533,2
2015;35240941;GASPAR DE GODOI COLACO TTE GENERAL;SP;Santana de Parnaíba;Todas;55,65%;64;Sim;544,4;465,4;493,8;450;492,2
2015;35273659;ANACLETO DE CAMARGO PADRE;SP;Santana de Parnaíba;Todas;54,93%;39;Sim;531,7;473,1;488,7;433,9;516,4
2015;35369226;CASTANHEIRAS;SP;Santana de Parnaíba;Todas;91,67%;11;Sim;657,3;578,2;598,7;668,5;709,1
2015;35419576;SESI 433;SP;Santana de Parnaíba;Todas;73,33%;22;Sim;603,9;527;567,1;528,6;642,7
2015;35218085;MARIA FERNANDES MACHADO DE OLIVEIRA;SP;Santana de Parnaíba;Todas;50,00%;17;Sim;533,3;458,4;489,2;446,7;514,1
2015;35276182;REINALDO ASCENCIO SANTOS FERREIRA VEREADOR;SP;Santana de Parnaíba;Todas;50,91%;28;Sim;528,6;449,5;480;441,7;532,9
2015;35207718;TOM JOBIM;SP;Santana de Parnaíba;Todas;77,27%;17;Sim;584,5;477,5;549,4;468;602,4
2016;35056169;ULYSSES SILVEIRA GUIMARAES DEPUTADO;SP;Santana de Parnaíba;Todas;33,67%;33;Não;522,2;442,8;511,6;453,9;520,6
2016;35121721;MORUMBI DE ALPHAVILLE;SP;Santana de Parnaíba;Todas;71,43%;25;Sim;617,3;581,2;596;585,6;588
2016;35140089;FERNAO GAIVOTA ESCOLA DE ENS FUNDAMENTAL MEDIO E ED INFANTIL;SP;Santana de Parnaíba;Todas;92,31%;12;Sim;629,4;576,2;606,9;561,8;653,3
2016;35141355;UNIVERSITARIO ALPHAVILLE COLEGIO;SP;Santana de Parnaíba;Todas;64,71%;11;Sim;577,3;518,9;562;533,7;620
2016;35141367;OBJETIVO COLEGIO UNIDADE ALPHAVILLE;SP;Santana de Parnaíba;Todas;91,86%;79;Sim;583,5;540,9;573;582,8;574,2
2016;35153163;PENTAGONO COLEGIO UNIDADE ALPHAVILLE;SP;Santana de Parnaíba;Todas;76,32%;29;Sim;653,8;615,9;625,5;711,7;811
2016;35192880;TEOTONIO VILELA SENADOR;SP;Santana de Parnaíba;Todas;36,67%;11;Não;523,5;470,2;499,9;452,9;520
2016;35218112;MANOEL JACOB CREMM;SP;Santana de Parnaíba;Todas;33,33%;6;Não;483,7;471;395,6;375,4;446,7
2016;35240916;RICARDA DOS SANTOS BRANCO PROFESSORA;SP;Santana de Parnaíba;Todas;59,09%;26;Sim;517,5;468,8;495;435,6;526,9
2016;35240936;ABELARDO MARQUES DA SILVA;SP;Santana de Parnaíba;Todas;54,17%;65;Sim;506,7;446,1;517,4;470,5;507,4
2016;35240941;GASPAR DE GODOI COLACO TTE GENERAL;SP;Santana de Parnaíba;Todas;62,16%;161;Sim;513;454,6;512,7;460,6;499,1
2016;35273636;AURELIO GIANINI TEIXEIRA;SP;Santana de Parnaíba;Todas;40,00%;10;Não;503,6;458,8;511,2;451,9;570
2016;35273648;ALDONIO RAMOS TEIXEIRA PROFESSOR;SP;Santana de Parnaíba;Todas;45,95%;68;Não;515,5;456,9;493,4;454,8;479,4
2016;35273659;ANACLETO DE CAMARGO PADRE;SP;Santana de Parnaíba;Todas;47,62%;50;Não;503;450,1;525;473,6;524,4
2016;35273661;ANA APARECIDA SANT ANA PROFESSORA;SP;Santana de Parnaíba;Todas;33,33%;28;Não;512,4;448,7;501,3;448,7;487,9
2016;35273673;CARLOS ALBERTO DE SIQUEIRA PROFESSOR;SP;Santana de Parnaíba;Todas;40,64%;76;Não;512,1;444,9;499,6;451,1;502,9
2016;35273685;LEDA CAIRA PROFESSORA;SP;Santana de Parnaíba;Todas;40,00%;54;Não;520,2;453,3;509,2;455,6;513,3
2016;35276170;PAULO OCTAVIO BOTELHO DOUTOR;SP;Santana de Parnaíba;Todas;60,87%;28;Sim;510,9;452,2;485,1;434,4;441,4
2016;35278853;MARIO COVAS JUNIOR GOVERNADOR;SP;Santana de Parnaíba;Todas;34,69%;17;Não;537,3;467;500,2;466,6;523,5
2016;35369226;CASTANHEIRAS;SP;Santana de Parnaíba;Todas;78,57%;22;Sim;623,2;590;607,5;628,4;637,3
2016;35419576;SESI 433;SP;Santana de Parnaíba;Todas;90,32%;28;Sim;578,6;521,6;567,3;530,2;625,7
2016;35286989;CELINA DA COSTA MACHADO SILVA DONA;SP;Santana de Parnaíba;Todas;65,00%;26;Sim;525,8;462,7;529,3;479,6;517,7
2016;35218085;MARIA FERNANDES MACHADO DE OLIVEIRA;SP;Santana de Parnaíba;Todas;34,88%;15;Não;520,7;475,6;502,7;470,7;520
2016;35287350;PAPA JOAO PAULO II;SP;Santana de Parnaíba;Todas;60,00%;18;Sim;523,3;467;523,1;484,9;580
2016;35276182;REINALDO ASCENCIO SANTOS FERREIRA VEREADOR;SP;Santana de Parnaíba;Todas;47,14%;33;Não;532,7;459,1;523,1;473,4;535,8
2016;35207718;TOM JOBIM;SP;Santana de Parnaíba;Todas;67,57%;25;Sim;550;498,2;550,5;515,3;588,8
2017;35056169;ULYSSES SILVEIRA GUIMARAES DEPUTADO;SP;Santana de Parnaíba;Todas;31,63%;31;Não;499,7;471,3;507,4;462,2;458,7
2017;35121721;MORUMBI DE ALPHAVILLE;SP;Santana de Parnaíba;Todas;100,00%;36;Sim;593,9;557,9;571,4;607;637,8
2017;35140089;FERNAO GAIVOTA ESCOLA DE ENS FUNDAMENTAL MEDIO E ED INFANTIL;SP;Santana de Parnaíba;Todas;100,00%;14;Sim;576,5;575;546,4;595,3;612,9
2017;35141355;UNIVERSITARIO ALPHAVILLE COLEGIO;SP;Santana de Parnaíba;Todas;64,71%;11;Sim;520,3;555,3;520,1;546,6;500
2017;35141367;OBJETIVO COLEGIO UNIDADE ALPHAVILLE;SP;Santana de Parnaíba;Todas;100,00%;95;Sim;583,3;539,8;567,1;579,2;583,4
2017;35153163;PENTAGONO COLEGIO UNIDADE ALPHAVILLE;SP;Santana de Parnaíba;Todas;57,89%;22;Sim;633;619,6;611,2;747,4;823,6
2017;35192880;TEOTONIO VILELA SENADOR;SP;Santana de Parnaíba;Todas;53,33%;16;Sim;489,6;443,7;475,2;427,3;430
2017;35218112;MANOEL JACOB CREMM;SP;Santana de Parnaíba;Todas;94,44%;17;Sim;516;505,1;514,4;539,1;540
2017;35240916;RICARDA DOS SANTOS BRANCO PROFESSORA;SP;Santana de Parnaíba;Todas;93,18%;41;Sim;491,5;473,6;494;479,3;505,9
2017;35240936;ABELARDO MARQUES DA SILVA;SP;Santana de Parnaíba;Todas;65,83%;79;Sim;482,5;430,3;484,2;430,9;447,9
2017;35240941;GASPAR DE GODOI COLACO TTE GENERAL;SP;Santana de Parnaíba;Todas;62,55%;162;Sim;502,1;462,3;503,7;487;524,2
2017;35273636;AURELIO GIANINI TEIXEIRA;SP;Santana de Parnaíba;Todas;52,00%;13;Sim;516,9;447,1;493,2;466,5;460
2017;35273648;ALDONIO RAMOS TEIXEIRA PROFESSOR;SP;Santana de Parnaíba;Todas;44,59%;66;Não;481,5;413;483,5;410,9;477,3
2017;35273659;ANACLETO DE CAMARGO PADRE;SP;Santana de Parnaíba;Todas;48,57%;51;Não;488,8;463,8;503,9;469,7;545,9
2017;35273661;ANA APARECIDA SANT ANA PROFESSORA;SP;Santana de Parnaíba;Todas;46,43%;39;Não;468,7;406,1;482,1;438,4;445,1
2017;35273673;CARLOS ALBERTO DE SIQUEIRA PROFESSOR;SP;Santana de Parnaíba;Todas;43,85%;82;Não;478,8;425,4;484,4;427;483,9
2017;35273685;LEDA CAIRA PROFESSORA;SP;Santana de Parnaíba;Todas;59,26%;80;Sim;490;442,7;488,8;440,7;475,5
2017;35276170;PAULO OCTAVIO BOTELHO DOUTOR;SP;Santana de Parnaíba;Todas;47,83%;22;Não;475,6;418,4;470,5;405,8;427,3
2017;35278853;MARIO COVAS JUNIOR GOVERNADOR;SP;Santana de Parnaíba;Todas;69,39%;34;Sim;503,1;453,2;522;431;551,8
2017;35369226;CASTANHEIRAS;SP;Santana de Parnaíba;Todas;64,29%;18;Sim;653,8;592,3;626,9;686,1;665,6
2017;35419576;SESI 433;SP;Santana de Parnaíba;Todas;87,10%;27;Sim;556,7;537,1;531,2;533,6;554,8
2017;35287350;PAPA JOAO PAULO II;SP;Santana de Parnaíba;Todas;50,00%;15;Sim;494,7;423,7;480,4;458,2;562,7
2017;35276182;REINALDO ASCENCIO SANTOS FERREIRA VEREADOR;SP;Santana de Parnaíba;Todas;38,57%;27;Não;468,1;442,8;500,6;458,5;505,9
2017;35207718;TOM JOBIM;SP;Santana de Parnaíba;Todas;86,49%;32;Sim;529,4;486,3;537,1;544,1;535
2018;35056169;ULYSSES SILVEIRA GUIMARAES DEPUTADO;SP;Santana de Parnaíba;Todas;40,00%;46;Não;530,8;456;492,5;496,8;409,6
2018;35121721;MORUMBI DE ALPHAVILLE;SP;Santana de Parnaíba;Todas;79,07%;34;Sim;637,7;559,9;600,4;692,2;667,1
2018;35140089;FERNAO GAIVOTA ESCOLA DE ENS FUNDAMENTAL MEDIO E ED INFANTIL;SP;Santana de Parnaíba;Todas;88,24%;15;Sim;597;508,3;568,7;624,9;605,3
2018;35141355;UNIVERSITARIO ALPHAVILLE COLEGIO;SP;Santana de Parnaíba;Todas;32,00%;8;Não;601,4;477,8;555,2;591,4;602,5
2018;35141367;OBJETIVO COLEGIO UNIDADE ALPHAVILLE;SP;Santana de Parnaíba;Todas;77,78%;84;Sim;628,4;570,5;587,7;616,2;569,1
2018;35153163;PENTAGONO COLEGIO UNIDADE ALPHAVILLE;SP;Santana de Parnaíba;Todas;83,33%;20;Sim;671,8;583,5;635,9;724,8;805
2018;35192880;TEOTONIO VILELA SENADOR;SP;Santana de Parnaíba;Todas;25,00%;10;Não;532,5;481,8;497,7;502,8;396
2018;35218112;MANOEL JACOB CREMM;SP;Santana de Parnaíba;Todas;70,00%;14;Sim;533,6;454,7;487,7;479,3;471,4
2018;35240916;RICARDA DOS SANTOS BRANCO PROFESSORA;SP;Santana de Parnaíba;Todas;63,04%;29;Sim;540,5;473,1;493,1;499,6;506,2
2018;35240936;ABELARDO MARQUES DA SILVA;SP;Santana de Parnaíba;Todas;48,00%;96;Não;515;461,2;488,8;499,4;408,3
2018;35240941;GASPAR DE GODOI COLACO TTE GENERAL;SP;Santana de Parnaíba;Todas;40,23%;140;Não;539,2;463,6;506,2;502,3;436,9
2018;35273636;AURELIO GIANINI TEIXEIRA;SP;Santana de Parnaíba;Todas;67,74%;21;Sim;535,4;478,7;505,9;497;480
2018;35273648;ALDONIO RAMOS TEIXEIRA PROFESSOR;SP;Santana de Parnaíba;Todas;49,62%;66;Não;525,1;461,6;489,9;505,1;423,3
2018;35273659;ANACLETO DE CAMARGO PADRE;SP;Santana de Parnaíba;Todas;44,44%;48;Não;567,8;482,5;524,8;508,7;508,8
2018;35273661;ANA APARECIDA SANT ANA PROFESSORA;SP;Santana de Parnaíba;Todas;34,95%;36;Não;541,2;473,5;500,1;505,7;475
2018;35273673;CARLOS ALBERTO DE SIQUEIRA PROFESSOR;SP;Santana de Parnaíba;Todas;49,28%;103;Não;530,2;463,8;493,5;491,2;448
2018;35273685;LEDA CAIRA PROFESSORA;SP;Santana de Parnaíba;Todas;59,42%;41;Sim;516,7;459;497,7;494,8;450,2
2018;35276170;PAULO OCTAVIO BOTELHO DOUTOR;SP;Santana de Parnaíba;Todas;48,39%;30;Não;515,9;453,9;496,2;487,8;394,7
2018;35278853;MARIO COVAS JUNIOR GOVERNADOR;SP;Santana de Parnaíba;Todas;45,33%;34;Não;558,9;472,3;517,1;508,4;482,9
2018;35369226;CASTANHEIRAS;SP;Santana de Parnaíba;Todas;89,66%;26;Sim;660,8;550,7;610,1;671,7;780,8
2018;35419576;SESI 433;SP;Santana de Parnaíba;Todas;90,32%;28;Sim;609,6;544,7;569,7;614,1;692,1
2018;35276182;REINALDO ASCENCIO SANTOS FERREIRA VEREADOR;SP;Santana de Parnaíba;Todas;41,38%;24;Não;516,8;448,1;502,1;510,4;462,5
2019;35056169;ULYSSES SILVEIRA GUIMARAES DEPUTADO;SP;Santana de Parnaíba;Todas;38,54%;37;Não;482,2;444;507,3;494,7;534,1
2019;35121721;MORUMBI DE ALPHAVILLE;SP;Santana de Parnaíba;Todas;48,28%;14;Não;599,4;546,2;589;716,8;728,6
2019;35140089;FERNAO GAIVOTA ESCOLA DE ENS FUNDAMENTAL MEDIO E ED INFANTIL;SP;Santana de Parnaíba;Todas;26,32%;5;Não;509;539,6;555,8;689,7;668
2019;35141355;UNIVERSITARIO ALPHAVILLE COLEGIO;SP;Santana de Parnaíba;Todas;8,70%;2;Não;490,4;469;500,9;486,4;500
2019;35141367;OBJETIVO COLEGIO UNIDADE ALPHAVILLE;SP;Santana de Parnaíba;Todas;69,53%;89;Sim;576,3;559,3;575;644,2;658,9
2019;35153163;PENTAGONO COLEGIO UNIDADE ALPHAVILLE;SP;Santana de Parnaíba;Todas;79,17%;19;Sim;631,6;604,5;613,4;770,1;834,7
2019;35192880;TEOTONIO VILELA SENADOR;SP;Santana de Parnaíba;Todas;24,44%;11;Não;495,6;451,8;497,7;512,1;418,2
2019;35218112;MANOEL JACOB CREMM;SP;Santana de Parnaíba;Todas;54,17%;13;Sim;511,1;465,2;537,3;512,2;589,2
2019;35240916;RICARDA DOS SANTOS BRANCO PROFESSORA;SP;Santana de Parnaíba;Todas;30,36%;17;Não;461,5;451;508,8;496;521,2
2019;35240936;ABELARDO MARQUES DA SILVA;SP;Santana de Parnaíba;Todas;42,59%;69;Não;468,1;437;499,2;471;521,5
2019;35240941;GASPAR DE GODOI COLACO TTE GENERAL;SP;Santana de Parnaíba;Todas;38,64%;114;Não;478,3;452,7;490,4;498,5;506,8
2019;35273636;AURELIO GIANINI TEIXEIRA;SP;Santana de Parnaíba;Todas;70,83%;17;Sim;487,7;458,4;521,8;506,6;545,9
2019;35273648;ALDONIO RAMOS TEIXEIRA PROFESSOR;SP;Santana de Parnaíba;Todas;34,78%;48;Não;476,8;440,9;508,4;475,9;520
2019;35273659;ANACLETO DE CAMARGO PADRE;SP;Santana de Parnaíba;Todas;47,20%;59;Não;492,4;444;513,8;488,4;528,8
2019;35273661;ANA APARECIDA SANT ANA PROFESSORA;SP;Santana de Parnaíba;Todas;42,57%;43;Não;489;449,4;504,3;481,5;531,2
2019;35273673;CARLOS ALBERTO DE SIQUEIRA PROFESSOR;SP;Santana de Parnaíba;Todas;35,56%;80;Não;485;451,2;505,8;479;514,8
2019;35273685;LEDA CAIRA PROFESSORA;SP;Santana de Parnaíba;Todas;37,86%;39;Não;451,4;435,7;494,2;448,4;541,5
2019;35276170;PAULO OCTAVIO BOTELHO DOUTOR;SP;Santana de Parnaíba;Todas;35,56%;16;Não;505,2;456,3;531,3;518,4;598,8
2019;35278853;MARIO COVAS JUNIOR GOVERNADOR;SP;Santana de Parnaíba;Todas;43,75%;28;Não;466,5;448,9;481,9;474,8;540
2019;35369226;CASTANHEIRAS;SP;Santana de Parnaíba;Todas;34,48%;10;Não;572,4;517,4;575,7;652,4;726
2019;35419576;SESI 433;SP;Santana de Parnaíba;Todas;87,50%;28;Sim;538,1;493,6;560,1;561;670
;;;;;;;;;;;;;
;;;;;;;;;;;;;
;;;;;;;;;;;;;
;;;;;;;;;;;;;
;;;;;;;;;;;;;
;;;;;;;;;;;;;
;;;;;;;;;;;;;
;;;;;;;;;;;;;
;;;;;;;;;;;;;
;;;;;;;;;;;;;
;;;;;;;;;;;;;
;;;;;;;;;;;;;
;;;;;;;;;;;;;
;;;;;;;;;;;;;
;;;;;;;;;;;;;
;;;;;;;;;;;;;
;;;;;;;;;;;;;
;;;;;;;;;;;;;
;;;;;;;;;;;;;
;;;;;;;;;;;;;
;;;;;;;;;;;;;
;;;;;;;;;;;;;
;;;;;;;;;;;;;
;;;;;;;;;;;;;
;;;;;;;;;;;;;
;;;;;;;;;;;;;
;;;;;;;;;;;;;
;;;;;;;;;;;;;
;;;;;;;;;;;;;
;;;;;;;;;;;;;
;;;;;;;;;;;;;
;;;;;;;;;;;;;
;;;;;;;;;;;;;
;;;;;;;;;;;;;
;;;;;;;;;;;;;
;;;;;;;;;;;;;
;;;;;;;;;;;;;
;;;;;;;;;;;;;
;;;;;;;;;;;;;
;;;;;;;;;;;;;
;;;;;;;;;;;;;
;;;;;;;;;;;;;
;;;;;;;;;;;;;
;;;;;;;;;;;;;
;;;;;;;;;;;;;
;;;;;;;;;;;;;
;;;;;;;;;;;;;
;;;;;;;;;;;;;
;;;;;;;;;;;;;
;;;;;;;;;;;;;
