﻿SUDESTE;35;SP;350010;ADAMANTINA;211;93.36%;226
SUDESTE;35;SP;350030;AGUAI;13;61.9%;21
SUDESTE;35;SP;350080;ALFREDO MARCONDES;16;55.17%;29
SUDESTE;35;SP;350120;ALVARES FLORENCE;11;57.89%;19
SUDESTE;35;SP;350160;AMERICANA;33;54.1%;61
SUDESTE;35;SP;350240;ANHUMAS;1;25%;4
SUDESTE;35;SP;350280;ARACATUBA;0;-;1
SUDESTE;35;SP;350340;AREALVA;0;-;1
SUDESTE;35;SP;350390;ARUJA;4;66.67%;6
SUDESTE;35;SP;350400;ASSIS;1;100%;1
SUDESTE;35;SP;350420;AURIFLAMA;7;26.92%;26
SUDESTE;35;SP;350550;BARRETOS;9;36%;25
SUDESTE;35;SP;350600;BAURU;208;49.29%;422
SUDESTE;35;SP;350610;BEBEDOURO;1;50%;2
SUDESTE;35;SP;350630;BERNARDINO DE CAMPOS;1;33.33%;3
SUDESTE;35;SP;350650;BIRIGUI;3;100%;3
SUDESTE;35;SP;350660;BIRITIBA-MIRIM;1;50%;2
SUDESTE;35;SP;350820;BURITIZAL;1;100%;1
SUDESTE;35;SP;350940;CAJURU;1;25%;4
SUDESTE;35;SP;351020;CAPAO BONITO;65;67.71%;96
SUDESTE;35;SP;351030;CAPELA DO ALTO;6;66.67%;9
SUDESTE;35;SP;351050;CARAGUATATUBA;169;62.59%;270
SUDESTE;35;SP;351120;CATIGUA;0;-;1
SUDESTE;35;SP;351130;CEDRAL;10;62.5%;16
SUDESTE;35;SP;351280;COSMOPOLIS;2;7.41%;27
SUDESTE;35;SP;351370;DESCALVADO;12;44.44%;27
SUDESTE;35;SP;351380;DIADEMA;71;59.66%;119
SUDESTE;35;SP;351440;DRACENA;5;50%;10
SUDESTE;35;SP;351500;EMBU DAS ARTES;344;52.52%;655
SUDESTE;35;SP;351515;ENGENHEIRO COELHO;1;50%;2
SUDESTE;35;SP;355730;ESTIVA GERBI;6;25%;24
SUDESTE;35;SP;351535;EUCLIDES DA CUNHA PAULISTA;3;30%;10
SUDESTE;35;SP;351540;FARTURA;73;82.02%;89
SUDESTE;35;SP;351640;FRANCO DA ROCHA;1;20%;5
SUDESTE;35;SP;351660;GALIA;17;50%;34
SUDESTE;35;SP;351710;GLICERIO;0;-;1
SUDESTE;35;SP;351750;GUAPIACU;3;17.65%;17
SUDESTE;35;SP;351790;GUARACI;1;50%;2
SUDESTE;35;SP;351800;GUARANI D'OESTE;1;11.11%;9
SUDESTE;35;SP;351880;GUARULHOS;306;54.55%;561
SUDESTE;35;SP;351925;IARAS;4;66.67%;6
SUDESTE;35;SP;352040;ILHABELA;64;30.33%;211
SUDESTE;35;SP;352220;ITAPECERICA DA SERRA;1;33.33%;3
SUDESTE;35;SP;352260;ITAPIRA;64;78.05%;82
SUDESTE;35;SP;352290;ITAPUI;7;77.78%;9
SUDESTE;35;SP;352310;ITAQUAQUECETUBA;56;48.28%;116
SUDESTE;35;SP;352340;ITATIBA;44;55%;80
SUDESTE;35;SP;352360;ITIRAPINA;0;-;2
SUDESTE;35;SP;352390;ITU;552;85.85%;643
SUDESTE;35;SP;352430;JABOTICABAL;8;33.33%;24
SUDESTE;35;SP;352440;JACAREI;25;65.79%;38
SUDESTE;35;SP;352530;JAU;0;-;1
SUDESTE;35;SP;352550;JOANOPOLIS;0;-;4
SUDESTE;35;SP;352590;JUNDIAI;6;60%;10
SUDESTE;35;SP;352630;LAGOINHA;6;50%;12
SUDESTE;35;SP;352690;LIMEIRA;9;52.94%;17
SUDESTE;35;SP;352740;LUCELIA;6;31.58%;19
SUDESTE;35;SP;352760;LUIS ANTONIO;2;66.67%;3
SUDESTE;35;SP;352820;MACEDONIA;1;50%;2
SUDESTE;35;SP;352900;MARILIA;35;44.3%;79
SUDESTE;35;SP;352920;MARTINOPOLIS;8;33.33%;24
SUDESTE;35;SP;352980;MINEIROS DO TIETE;4;66.67%;6
SUDESTE;35;SP;353020;MIRANTE DO PARANAPANEMA;5;27.78%;18
SUDESTE;35;SP;353050;MOCOCA;11;57.89%;19
SUDESTE;35;SP;353070;MOGI GUACU;5;62.5%;8
SUDESTE;35;SP;353080;MOGI MIRIM;423;84.1%;503
SUDESTE;35;SP;353260;NHANDEARA;1;50%;2
SUDESTE;35;SP;353320;NOVA INDEPENDENCIA;1;50%;2
SUDESTE;35;SP;353410;ORIENTE;1;6.67%;15
SUDESTE;35;SP;353420;ORINDIUVA;2;18.18%;11
SUDESTE;35;SP;353430;ORLANDIA;51;46.79%;109
SUDESTE;35;SP;353440;OSASCO;14;35%;40
SUDESTE;35;SP;353490;PACAEMBU;0;-;3
SUDESTE;35;SP;353600;PARAPUA;2;13.33%;15
SUDESTE;35;SP;353657;PAULISTANIA;1;33.33%;3
SUDESTE;35;SP;353700;PEDREGULHO;0;-;1
SUDESTE;35;SP;353730;PENAPOLIS;19;45.24%;42
SUDESTE;35;SP;353800;PINDAMONHANGABA;2;50%;4
SUDESTE;35;SP;353870;PIRACICABA;69;51.11%;135
SUDESTE;35;SP;353930;PIRASSUNUNGA;14;58.33%;24
SUDESTE;35;SP;353940;PIRATININGA;31;50%;62
SUDESTE;35;SP;354010;PONGAI;3;100%;3
SUDESTE;35;SP;354030;PONTES GESTAL;2;100%;2
SUDESTE;35;SP;354170;QUATA;7;58.33%;12
SUDESTE;35;SP;354260;REGISTRO;3;60%;5
SUDESTE;35;SP;354270;RESTINGA;1;100%;1
SUDESTE;35;SP;354340;RIBEIRAO PRETO;1154;57.1%;2.021
SUDESTE;35;SP;354390;RIO CLARO;101;66.01%;153
SUDESTE;35;SP;354425;ROSANA;5;55.56%;9
SUDESTE;35;SP;354520;SALTO;9;50%;18
SUDESTE;35;SP;354630;SANTA CRUZ DAS PALMEIRAS;172;77.13%;223
SUDESTE;35;SP;354710;SANTA MERCEDES;0;-;2
SUDESTE;35;SP;354730;SANTANA DE PARNAIBA;1;50%;2
SUDESTE;35;SP;354790;SANTO ANTONIO DA ALEGRIA;8;53.33%;15
SUDESTE;35;SP;354890;SAO CARLOS;4;40%;10
SUDESTE;35;SP;354920;SAO JOAO DAS DUAS PONTES;0;-;5
SUDESTE;35;SP;354980;SAO JOSE DO RIO PRETO;1;100%;1
SUDESTE;35;SP;354990;SAO JOSE DOS CAMPOS;48;57.83%;83
SUDESTE;35;SP;355060;SAO ROQUE;180;57.88%;311
SUDESTE;35;SP;355070;SAO SEBASTIAO;12;80%;15
SUDESTE;35;SP;355080;SAO SEBASTIAO DA GRAMA;0;-;1
SUDESTE;35;SP;355100;SAO VICENTE;49;83.05%;59
SUDESTE;35;SP;355150;SERRANA;15;62.5%;24
SUDESTE;35;SP;355170;SERTAOZINHO;1;100%;1
SUDESTE;35;SP;355255;SUZANAPOLIS;1;25%;4
SUDESTE;35;SP;355250;SUZANO;46;68.66%;67
SUDESTE;35;SP;355270;TABATINGA;1;20%;5
SUDESTE;35;SP;355280;TABOAO DA SERRA;8;47.06%;17
SUDESTE;35;SP;355300;TAGUAI;18;48.65%;37
SUDESTE;35;SP;355390;TARABAI;0;-;4
SUDESTE;35;SP;355410;TAUBATE;112;56.85%;197
SUDESTE;35;SP;355480;TREMEMBE;2;66.67%;3
SUDESTE;35;SP;355535;UBARANA;0;-;1
SUDESTE;35;SP;355580;URANIA;10;43.48%;23
SUDESTE;35;SP;355600;URUPES;25;56.82%;44
SUDESTE;35;SP;355640;VARGEM GRANDE DO SUL;3;60%;5
