﻿SUDESTE;35;SP;350010;ADAMANTINA;8;100%;8
SUDESTE;35;SP;350030;AGUAI;65;95.59%;68
SUDESTE;35;SP;350080;ALFREDO MARCONDES;4;40%;10
SUDESTE;35;SP;350120;ALVARES FLORENCE;2;66.67%;3
SUDESTE;35;SP;350240;ANHUMAS;1;3.45%;29
SUDESTE;35;SP;350280;ARACATUBA;6;100%;6
SUDESTE;35;SP;350315;ARAPEI;0;-;14
SUDESTE;35;SP;350390;ARUJA;0;-;212
SUDESTE;35;SP;350400;ASSIS;0;-;1
SUDESTE;35;SP;350420;AURIFLAMA;89;95.7%;93
SUDESTE;35;SP;350500;BARAO DE ANTONINA;0;-;1
SUDESTE;35;SP;350520;BARIRI;3;100%;3
SUDESTE;35;SP;350530;BARRA BONITA;33;100%;33
SUDESTE;35;SP;350550;BARRETOS;0;-;102
SUDESTE;35;SP;350580;BASTOS;0;-;16
SUDESTE;35;SP;350600;BAURU;118;53.64%;220
SUDESTE;35;SP;350650;BIRIGUI;0;-;1
SUDESTE;35;SP;350660;BIRITIBA-MIRIM;0;-;6
SUDESTE;35;SP;350850;CACAPAVA;24;9.38%;256
SUDESTE;35;SP;350870;CACONDE;1;1.45%;69
SUDESTE;35;SP;350940;CAJURU;0;-;4
SUDESTE;35;SP;350970;CAMPOS DO JORDAO;0;-;3
SUDESTE;35;SP;351020;CAPAO BONITO;2;100%;2
SUDESTE;35;SP;351030;CAPELA DO ALTO;8;100%;8
SUDESTE;35;SP;351050;CARAGUATATUBA;154;88.51%;174
SUDESTE;35;SP;351130;CEDRAL;0;-;14
SUDESTE;35;SP;351190;CLEMENTINA;0;-;6
SUDESTE;35;SP;351220;CONCHAL;0;-;3
SUDESTE;35;SP;351270;CORUMBATAI;5;100%;5
SUDESTE;35;SP;351360;CUNHA;0;-;1
SUDESTE;35;SP;351370;DESCALVADO;53;96.36%;55
SUDESTE;35;SP;351380;DIADEMA;8;14.55%;55
SUDESTE;35;SP;351410;DOIS CORREGOS;0;-;1
SUDESTE;35;SP;351500;EMBU DAS ARTES;44;86.27%;51
SUDESTE;35;SP;351515;ENGENHEIRO COELHO;0;-;2
SUDESTE;35;SP;351518;ESPIRITO SANTO DO PINHAL;6;100%;6
SUDESTE;35;SP;355730;ESTIVA GERBI;0;-;5
SUDESTE;35;SP;351535;EUCLIDES DA CUNHA PAULISTA;0;-;8
SUDESTE;35;SP;351540;FARTURA;4;100%;4
SUDESTE;35;SP;351640;FRANCO DA ROCHA;13;86.67%;15
SUDESTE;35;SP;351660;GALIA;1;100%;1
SUDESTE;35;SP;351670;GARCA;0;-;1
SUDESTE;35;SP;351700;GETULINA;1;100%;1
SUDESTE;35;SP;351750;GUAPIACU;0;-;8
SUDESTE;35;SP;351790;GUARACI;0;-;79
SUDESTE;35;SP;351800;GUARANI D'OESTE;12;57.14%;21
SUDESTE;35;SP;351880;GUARULHOS;86;33.86%;254
SUDESTE;35;SP;351925;IARAS;2;16.67%;12
SUDESTE;35;SP;351960;IBITINGA;1;100%;1
SUDESTE;35;SP;351990;IEPE;56;88.89%;63
SUDESTE;35;SP;352020;IGARATA;225;93.75%;240
SUDESTE;35;SP;352040;ILHABELA;5;55.56%;9
SUDESTE;35;SP;352130;IPUA;24;100%;24
SUDESTE;35;SP;352190;ITAJOBI;0;-;3
SUDESTE;35;SP;352220;ITAPECERICA DA SERRA;0;-;4
SUDESTE;35;SP;352250;ITAPEVI;4;100%;4
SUDESTE;35;SP;352260;ITAPIRA;0;-;9
SUDESTE;35;SP;352310;ITAQUAQUECETUBA;0;-;4
SUDESTE;35;SP;352390;ITU;3;100%;3
SUDESTE;35;SP;352430;JABOTICABAL;49;96.08%;51
SUDESTE;35;SP;352440;JACAREI;0;-;1
SUDESTE;35;SP;352480;JALES;0;-;1
SUDESTE;35;SP;352510;JARDINOPOLIS;0;-;26
SUDESTE;35;SP;352530;JAU;3;75%;4
SUDESTE;35;SP;352550;JOANOPOLIS;62;100%;62
SUDESTE;35;SP;352570;JOSE BONIFACIO;0;-;4
SUDESTE;35;SP;352590;JUNDIAI;8;100%;8
SUDESTE;35;SP;352630;LAGOINHA;0;-;1
SUDESTE;35;SP;352670;LEME;5;16.13%;31
SUDESTE;35;SP;352690;LIMEIRA;73;84.88%;86
SUDESTE;35;SP;352740;LUCELIA;1;100%;1
SUDESTE;35;SP;352760;LUIS ANTONIO;0;-;1
SUDESTE;35;SP;352810;MACAUBAL;0;-;1
SUDESTE;35;SP;352900;MARILIA;16;22.22%;72
SUDESTE;35;SP;352920;MARTINOPOLIS;14;93.33%;15
SUDESTE;35;SP;352940;MAUA;74;98.67%;75
SUDESTE;35;SP;352960;MERIDIANO;0;-;1
SUDESTE;35;SP;353020;MIRANTE DO PARANAPANEMA;0;-;87
SUDESTE;35;SP;353050;MOCOCA;0;-;38
SUDESTE;35;SP;353070;MOGI GUACU;0;-;267
SUDESTE;35;SP;353080;MOGI MIRIM;25;83.33%;30
SUDESTE;35;SP;353130;MONTE ALTO;68;90.67%;75
SUDESTE;35;SP;353160;MONTE CASTELO;38;95%;40
SUDESTE;35;SP;353260;NHANDEARA;11;100%;11
SUDESTE;35;SP;353280;NOVA ALIANCA;0;-;1
SUDESTE;35;SP;353286;NOVA CASTILHO;0;-;1
SUDESTE;35;SP;353420;ORINDIUVA;0;-;33
SUDESTE;35;SP;353430;ORLANDIA;1;50%;2
SUDESTE;35;SP;353440;OSASCO;0;-;1
SUDESTE;35;SP;353475;OUROESTE;0;-;70
SUDESTE;35;SP;353490;PACAEMBU;8;100%;8
SUDESTE;35;SP;353550;PARAGUACU PAULISTA;8;100%;8
SUDESTE;35;SP;353560;PARAIBUNA;0;-;7
SUDESTE;35;SP;353620;PARIQUERA-ACU;0;-;13
SUDESTE;35;SP;353640;PAULICEIA;82;53.25%;154
SUDESTE;35;SP;353657;PAULISTANIA;0;-;2
SUDESTE;35;SP;353730;PENAPOLIS;0;-;1
SUDESTE;35;SP;353780;PIEDADE;19;95%;20
SUDESTE;35;SP;353800;PINDAMONHANGABA;0;-;1
SUDESTE;35;SP;353870;PIRACICABA;53;88.33%;60
SUDESTE;35;SP;353930;PIRASSUNUNGA;46;100%;46
SUDESTE;35;SP;353940;PIRATININGA;30;90.91%;33
SUDESTE;35;SP;353970;PLATINA;0;-;13
SUDESTE;35;SP;354000;POMPEIA;0;-;32
SUDESTE;35;SP;354060;PORTO FELIZ;7;87.5%;8
SUDESTE;35;SP;354100;PRAIA GRANDE;0;-;1
SUDESTE;35;SP;354110;PRESIDENTE ALVES;43;95.56%;45
SUDESTE;35;SP;354170;QUATA;20;24.39%;82
SUDESTE;35;SP;354180;QUEIROZ;4;100%;4
SUDESTE;35;SP;354210;RAFARD;0;-;4
SUDESTE;35;SP;354220;RANCHARIA;0;-;3
SUDESTE;35;SP;354260;REGISTRO;0;-;1
SUDESTE;35;SP;354270;RESTINGA;0;-;2
SUDESTE;35;SP;354320;RIBEIRAO DO SUL;45;86.54%;52
SUDESTE;35;SP;354340;RIBEIRAO PRETO;1526;95.97%;1.590
SUDESTE;35;SP;354390;RIO CLARO;32;82.05%;39
SUDESTE;35;SP;354420;RIOLANDIA;0;-;32
SUDESTE;35;SP;354425;ROSANA;4;100%;4
SUDESTE;35;SP;354580;SANTA BARBARA D'OESTE;0;-;5
SUDESTE;35;SP;354600;SANTA BRANCA;0;-;2
SUDESTE;35;SP;354630;SANTA CRUZ DAS PALMEIRAS;4;80%;5
SUDESTE;35;SP;354660;SANTA FE DO SUL;0;-;1
SUDESTE;35;SP;354710;SANTA MERCEDES;10;41.67%;24
SUDESTE;35;SP;354730;SANTANA DE PARNAIBA;0;-;15
SUDESTE;35;SP;354790;SANTO ANTONIO DA ALEGRIA;0;-;3
SUDESTE;35;SP;354830;SANTO EXPEDITO;15;100%;15
SUDESTE;35;SP;354860;SAO BENTO DO SAPUCAI;42;95.45%;44
SUDESTE;35;SP;354890;SAO CARLOS;0;-;9
SUDESTE;35;SP;354925;SAO JOAO DE IRACEMA;0;-;3
SUDESTE;35;SP;354950;SAO JOSE DA BELA VISTA;0;-;1
SUDESTE;35;SP;354960;SAO JOSE DO BARREIRO;0;-;5
SUDESTE;35;SP;354980;SAO JOSE DO RIO PRETO;17;94.44%;18
SUDESTE;35;SP;354990;SAO JOSE DOS CAMPOS;19;100%;19
SUDESTE;35;SP;355050;SAO PEDRO DO TURVO;5;100%;5
SUDESTE;35;SP;355060;SAO ROQUE;446;98.02%;455
SUDESTE;35;SP;355070;SAO SEBASTIAO;7;77.78%;9
SUDESTE;35;SP;355090;SAO SIMAO;216;98.63%;219
SUDESTE;35;SP;355150;SERRANA;29;67.44%;43
SUDESTE;35;SP;355170;SERTAOZINHO;3;100%;3
SUDESTE;35;SP;355190;SEVERINIA;1;100%;1
SUDESTE;35;SP;355230;SUD MENNUCCI;0;-;2
SUDESTE;35;SP;355290;TACIBA;2;100%;2
SUDESTE;35;SP;355300;TAGUAI;49;100%;49
SUDESTE;35;SP;355320;TAIUVA;14;93.33%;15
SUDESTE;35;SP;355330;TAMBAU;2;100%;2
SUDESTE;35;SP;355360;TAPIRATIBA;0;-;37
SUDESTE;35;SP;355365;TAQUARAL;5;100%;5
SUDESTE;35;SP;355390;TARABAI;0;-;1
SUDESTE;35;SP;355410;TAUBATE;25;92.59%;27
SUDESTE;35;SP;355430;TEODORO SAMPAIO;0;-;4
SUDESTE;35;SP;355440;TERRA ROXA;7;100%;7
SUDESTE;35;SP;355480;TREMEMBE;38;100%;38
SUDESTE;35;SP;355495;TUIUTI;0;-;7
SUDESTE;35;SP;355520;TURIUBA;22;64.71%;34
SUDESTE;35;SP;355580;URANIA;0;-;103
SUDESTE;35;SP;355640;VARGEM GRANDE DO SUL;2;100%;2
SUDESTE;35;SP;355710;VOTUPORANGA;0;-;110
