﻿SUDESTE;35;SP;350050;AGUAS DE LINDOIA;0;-;1
SUDESTE;35;SP;350080;ALFREDO MARCONDES;0;-;32
SUDESTE;35;SP;350100;ALTINOPOLIS;0;-;3
SUDESTE;35;SP;350240;ANHUMAS;0;-;3
SUDESTE;35;SP;350280;ARACATUBA;0;-;30
SUDESTE;35;SP;350360;AREIOPOLIS;0;-;28
SUDESTE;35;SP;350520;BARIRI;0;-;5
SUDESTE;35;SP;350570;BARUERI;0;-;28
SUDESTE;35;SP;350580;BASTOS;0;-;6
SUDESTE;35;SP;350600;BAURU;104;88.89%;117
SUDESTE;35;SP;350650;BIRIGUI;63;98.44%;64
SUDESTE;35;SP;350780;BRODOWSKI;0;-;82
SUDESTE;35;SP;350850;CACAPAVA;0;-;267
SUDESTE;35;SP;351200;COLINA;0;-;2
SUDESTE;35;SP;351370;DESCALVADO;0;-;38
SUDESTE;35;SP;351380;DIADEMA;0;-;50
SUDESTE;35;SP;351500;EMBU DAS ARTES;0;-;18
SUDESTE;35;SP;351518;ESPIRITO SANTO DO PINHAL;10;90.91%;11
SUDESTE;35;SP;351535;EUCLIDES DA CUNHA PAULISTA;0;-;4
SUDESTE;35;SP;351750;GUAPIACU;0;-;4
SUDESTE;35;SP;351820;GUARARAPES;0;-;1
SUDESTE;35;SP;351850;GUAREI;0;-;1
SUDESTE;35;SP;351880;GUARULHOS;0;-;39
SUDESTE;35;SP;351960;IBITINGA;0;-;2
SUDESTE;35;SP;352000;IGARACU DO TIETE;0;-;78
SUDESTE;35;SP;352020;IGARATA;139;100%;139
SUDESTE;35;SP;352040;ILHABELA;0;-;1
SUDESTE;35;SP;352070;INDIAPORA;0;-;1
SUDESTE;35;SP;352090;IPAUSSU;31;96.88%;32
SUDESTE;35;SP;352190;ITAJOBI;0;-;1
SUDESTE;35;SP;352220;ITAPECERICA DA SERRA;0;-;7
SUDESTE;35;SP;352260;ITAPIRA;0;-;28
SUDESTE;35;SP;352300;ITAPURA;0;-;3
SUDESTE;35;SP;352510;JARDINOPOLIS;0;-;4
SUDESTE;35;SP;352530;JAU;1;50%;2
SUDESTE;35;SP;352570;JOSE BONIFACIO;0;-;4
SUDESTE;35;SP;352600;JUNQUEIROPOLIS;1;100%;1
SUDESTE;35;SP;352670;LEME;0;-;5
SUDESTE;35;SP;352690;LIMEIRA;3;75%;4
SUDESTE;35;SP;352720;LORENA;0;-;8
SUDESTE;35;SP;352810;MACAUBAL;0;-;16
SUDESTE;35;SP;352850;MAIRIPORA;20;100%;20
SUDESTE;35;SP;352920;MARTINOPOLIS;24;100%;24
SUDESTE;35;SP;352940;MAUA;92;100%;92
SUDESTE;35;SP;353020;MIRANTE DO PARANAPANEMA;0;-;1
SUDESTE;35;SP;353050;MOCOCA;0;-;1
SUDESTE;35;SP;353080;MOGI MIRIM;10;71.43%;14
SUDESTE;35;SP;353286;NOVA CASTILHO;0;-;9
SUDESTE;35;SP;353360;NUPORANGA;0;-;32
SUDESTE;35;SP;353440;OSASCO;0;-;6
SUDESTE;35;SP;353475;OUROESTE;0;-;9
SUDESTE;35;SP;353490;PACAEMBU;0;-;6
SUDESTE;35;SP;353550;PARAGUACU PAULISTA;0;-;3
SUDESTE;35;SP;353780;PIEDADE;0;-;6
SUDESTE;35;SP;353800;PINDAMONHANGABA;0;-;4
SUDESTE;35;SP;353870;PIRACICABA;69;54.76%;126
SUDESTE;35;SP;353890;PIRAJUI;0;-;1
SUDESTE;35;SP;353940;PIRATININGA;5;71.43%;7
SUDESTE;35;SP;353970;PLATINA;0;-;5
SUDESTE;35;SP;354000;POMPEIA;0;-;55
SUDESTE;35;SP;354220;RANCHARIA;0;-;3
SUDESTE;35;SP;354340;RIBEIRAO PRETO;2;0.41%;491
SUDESTE;35;SP;354680;SANTA ISABEL;0;-;1
SUDESTE;35;SP;354710;SANTA MERCEDES;2;3.57%;56
SUDESTE;35;SP;354730;SANTANA DE PARNAIBA;0;-;5
SUDESTE;35;SP;354790;SANTO ANTONIO DA ALEGRIA;0;-;16
SUDESTE;35;SP;354840;SANTOPOLIS DO AGUAPEI;0;-;10
SUDESTE;35;SP;354860;SAO BENTO DO SAPUCAI;1;100%;1
SUDESTE;35;SP;354940;SAO JOAQUIM DA BARRA;0;-;1
SUDESTE;35;SP;354970;SAO JOSE DO RIO PARDO;0;-;5
SUDESTE;35;SP;354990;SAO JOSE DOS CAMPOS;0;-;10
SUDESTE;35;SP;355010;SAO MANUEL;0;-;1
SUDESTE;35;SP;355030;SAO PAULO;0;-;19
SUDESTE;35;SP;355060;SAO ROQUE;0;-;76
SUDESTE;35;SP;355100;SAO VICENTE;1;100%;1
SUDESTE;35;SP;355140;SERRA AZUL;0;-;14
SUDESTE;35;SP;355170;SERTAOZINHO;1;100%;1
SUDESTE;35;SP;355255;SUZANAPOLIS;1;100%;1
SUDESTE;35;SP;355250;SUZANO;0;-;1
SUDESTE;35;SP;355280;TABOAO DA SERRA;1;100%;1
SUDESTE;35;SP;355300;TAGUAI;0;-;163
SUDESTE;35;SP;355320;TAIUVA;0;-;1
SUDESTE;35;SP;355395;TARUMA;0;-;48
SUDESTE;35;SP;355410;TAUBATE;31;88.57%;35
SUDESTE;35;SP;355480;TREMEMBE;0;-;1
SUDESTE;35;SP;355500;TUPA;218;88.26%;247
SUDESTE;35;SP;355635;VARGEM;0;-;1
SUDESTE;35;SP;355650;VARZEA PAULISTA;0;-;3
SUDESTE;35;SP;355710;VOTUPORANGA;0;-;23
