﻿SUDESTE;35;SP;350010;ADAMANTINA;6;50%;12
SUDESTE;35;SP;350030;AGUAI;8;53.33%;15
SUDESTE;35;SP;350080;ALFREDO MARCONDES;12;30%;40
SUDESTE;35;SP;350120;ALVARES FLORENCE;10;33.33%;30
SUDESTE;35;SP;350160;AMERICANA;9;50%;18
SUDESTE;35;SP;350240;ANHUMAS;8;42.11%;19
SUDESTE;35;SP;350280;ARACATUBA;124;43.82%;283
SUDESTE;35;SP;350335;ARCO-IRIS;0;-;2
SUDESTE;35;SP;350390;ARUJA;29;43.94%;66
SUDESTE;35;SP;350400;ASSIS;1;50%;2
SUDESTE;35;SP;350410;ATIBAIA;1;100%;1
SUDESTE;35;SP;350420;AURIFLAMA;34;35.79%;95
SUDESTE;35;SP;350450;AVARE;1;20%;5
SUDESTE;35;SP;350520;BARIRI;5;25%;20
SUDESTE;35;SP;350530;BARRA BONITA;2;25%;8
SUDESTE;35;SP;350550;BARRETOS;21;36.21%;58
SUDESTE;35;SP;350600;BAURU;220;44.81%;491
SUDESTE;35;SP;350610;BEBEDOURO;0;-;3
SUDESTE;35;SP;350630;BERNARDINO DE CAMPOS;1;10%;10
SUDESTE;35;SP;350650;BIRIGUI;6;66.67%;9
SUDESTE;35;SP;350660;BIRITIBA-MIRIM;14;51.85%;27
SUDESTE;35;SP;350820;BURITIZAL;3;50%;6
SUDESTE;35;SP;350850;CACAPAVA;22;34.38%;64
SUDESTE;35;SP;350870;CACONDE;1;50%;2
SUDESTE;35;SP;350940;CAJURU;1;16.67%;6
SUDESTE;35;SP;351020;CAPAO BONITO;80;47.62%;168
SUDESTE;35;SP;351030;CAPELA DO ALTO;38;67.86%;56
SUDESTE;35;SP;351050;CARAGUATATUBA;73;41.24%;177
SUDESTE;35;SP;351100;CASTILHO;0;-;1
SUDESTE;35;SP;351130;CEDRAL;31;41.33%;75
SUDESTE;35;SP;351280;COSMOPOLIS;30;48.39%;62
SUDESTE;35;SP;351370;DESCALVADO;11;23.91%;46
SUDESTE;35;SP;351380;DIADEMA;59;50.86%;116
SUDESTE;35;SP;351440;DRACENA;4;50%;8
SUDESTE;35;SP;351500;EMBU DAS ARTES;259;52.01%;498
SUDESTE;35;SP;355730;ESTIVA GERBI;13;36.11%;36
SUDESTE;35;SP;351535;EUCLIDES DA CUNHA PAULISTA;10;33.33%;30
SUDESTE;35;SP;351540;FARTURA;32;47.76%;67
SUDESTE;35;SP;351640;FRANCO DA ROCHA;7;77.78%;9
SUDESTE;35;SP;351660;GALIA;17;27.87%;61
SUDESTE;35;SP;351700;GETULINA;0;-;1
SUDESTE;35;SP;351710;GLICERIO;5;45.45%;11
SUDESTE;35;SP;351750;GUAPIACU;25;49.02%;51
SUDESTE;35;SP;351790;GUARACI;36;41.86%;86
SUDESTE;35;SP;351800;GUARANI D'OESTE;9;25.71%;35
SUDESTE;35;SP;351880;GUARULHOS;328;46.33%;708
SUDESTE;35;SP;351900;HERCULANDIA;0;-;1
SUDESTE;35;SP;351925;IARAS;2;20%;10
SUDESTE;35;SP;352020;IGARATA;68;64.76%;105
SUDESTE;35;SP;352040;ILHABELA;36;26.87%;134
SUDESTE;35;SP;352220;ITAPECERICA DA SERRA;6;60%;10
SUDESTE;35;SP;352260;ITAPIRA;20;31.75%;63
SUDESTE;35;SP;352310;ITAQUAQUECETUBA;48;51.06%;94
SUDESTE;35;SP;352340;ITATIBA;48;48%;100
SUDESTE;35;SP;352360;ITIRAPINA;1;25%;4
SUDESTE;35;SP;352390;ITU;76;57.58%;132
SUDESTE;35;SP;352430;JABOTICABAL;30;66.67%;45
SUDESTE;35;SP;352440;JACAREI;2;22.22%;9
SUDESTE;35;SP;352530;JAU;1;100%;1
SUDESTE;35;SP;352550;JOANOPOLIS;12;46.15%;26
SUDESTE;35;SP;352570;JOSE BONIFACIO;4;57.14%;7
SUDESTE;35;SP;352580;JULIO MESQUITA;1;7.69%;13
SUDESTE;35;SP;352590;JUNDIAI;21;38.18%;55
SUDESTE;35;SP;352630;LAGOINHA;8;34.78%;23
SUDESTE;35;SP;352690;LIMEIRA;4;30.77%;13
SUDESTE;35;SP;352740;LUCELIA;9;31.03%;29
SUDESTE;35;SP;352760;LUIS ANTONIO;3;42.86%;7
SUDESTE;35;SP;352770;LUIZIANIA;2;100%;2
SUDESTE;35;SP;352820;MACEDONIA;6;60%;10
SUDESTE;35;SP;352900;MARILIA;103;53.93%;191
SUDESTE;35;SP;352920;MARTINOPOLIS;10;47.62%;21
SUDESTE;35;SP;352940;MAUA;1;100%;1
SUDESTE;35;SP;352980;MINEIROS DO TIETE;5;35.71%;14
SUDESTE;35;SP;353020;MIRANTE DO PARANAPANEMA;30;47.62%;63
SUDESTE;35;SP;353050;MOCOCA;13;56.52%;23
SUDESTE;35;SP;353070;MOGI GUACU;5;35.71%;14
SUDESTE;35;SP;353080;MOGI MIRIM;53;50.48%;105
SUDESTE;35;SP;353100;MONCOES;0;-;3
SUDESTE;35;SP;353260;NHANDEARA;7;50%;14
SUDESTE;35;SP;353310;NOVA GUATAPORANGA;1;50%;2
SUDESTE;35;SP;353320;NOVA INDEPENDENCIA;2;66.67%;3
SUDESTE;35;SP;353410;ORIENTE;15;46.88%;32
SUDESTE;35;SP;353420;ORINDIUVA;23;26.44%;87
SUDESTE;35;SP;353430;ORLANDIA;5;41.67%;12
SUDESTE;35;SP;353440;OSASCO;3;60%;5
SUDESTE;35;SP;353470;OURINHOS;0;-;1
SUDESTE;35;SP;353490;PACAEMBU;4;28.57%;14
SUDESTE;35;SP;353560;PARAIBUNA;2;50%;4
SUDESTE;35;SP;353600;PARAPUA;4;40%;10
SUDESTE;35;SP;353640;PAULICEIA;20;47.62%;42
SUDESTE;35;SP;353657;PAULISTANIA;3;75%;4
SUDESTE;35;SP;353715;PEDRINHAS PAULISTA;2;66.67%;3
SUDESTE;35;SP;353730;PENAPOLIS;19;34.55%;55
SUDESTE;35;SP;353800;PINDAMONHANGABA;6;100%;6
SUDESTE;35;SP;353870;PIRACICABA;172;43.32%;397
SUDESTE;35;SP;353930;PIRASSUNUNGA;10;43.48%;23
SUDESTE;35;SP;353940;PIRATININGA;56;47.06%;119
SUDESTE;35;SP;354010;PONGAI;1;25%;4
SUDESTE;35;SP;354030;PONTES GESTAL;2;66.67%;3
SUDESTE;35;SP;354110;PRESIDENTE ALVES;2;50%;4
SUDESTE;35;SP;354170;QUATA;5;31.25%;16
SUDESTE;35;SP;354200;QUINTANA;3;42.86%;7
SUDESTE;35;SP;354220;RANCHARIA;1;100%;1
SUDESTE;35;SP;354260;REGISTRO;3;42.86%;7
SUDESTE;35;SP;354320;RIBEIRAO DO SUL;9;50%;18
SUDESTE;35;SP;354340;RIBEIRAO PRETO;1377;48.74%;2.825
SUDESTE;35;SP;354390;RIO CLARO;117;48.95%;239
SUDESTE;35;SP;354425;ROSANA;11;52.38%;21
SUDESTE;35;SP;354520;SALTO;13;38.24%;34
SUDESTE;35;SP;354630;SANTA CRUZ DAS PALMEIRAS;36;48.65%;74
SUDESTE;35;SP;354710;SANTA MERCEDES;11;57.89%;19
SUDESTE;35;SP;354730;SANTANA DE PARNAIBA;3;60%;5
SUDESTE;35;SP;354790;SANTO ANTONIO DA ALEGRIA;15;27.78%;54
SUDESTE;35;SP;354830;SANTO EXPEDITO;0;-;11
SUDESTE;35;SP;354890;SAO CARLOS;4;30.77%;13
SUDESTE;35;SP;354920;SAO JOAO DAS DUAS PONTES;13;54.17%;24
SUDESTE;35;SP;354960;SAO JOSE DO BARREIRO;2;100%;2
SUDESTE;35;SP;354990;SAO JOSE DOS CAMPOS;72;41.86%;172
SUDESTE;35;SP;355010;SAO MANUEL;1;33.33%;3
SUDESTE;35;SP;355060;SAO ROQUE;271;54.42%;498
SUDESTE;35;SP;355070;SAO SEBASTIAO;3;75%;4
SUDESTE;35;SP;355080;SAO SEBASTIAO DA GRAMA;1;100%;1
SUDESTE;35;SP;355100;SAO VICENTE;39;69.64%;56
SUDESTE;35;SP;355150;SERRANA;14;40%;35
SUDESTE;35;SP;355230;SUD MENNUCCI;1;100%;1
SUDESTE;35;SP;355255;SUZANAPOLIS;2;100%;2
SUDESTE;35;SP;355250;SUZANO;32;74.42%;43
SUDESTE;35;SP;355270;TABATINGA;0;-;1
SUDESTE;35;SP;355280;TABOAO DA SERRA;9;56.25%;16
SUDESTE;35;SP;355290;TACIBA;1;50%;2
SUDESTE;35;SP;355300;TAGUAI;17;26.15%;65
SUDESTE;35;SP;355320;TAIUVA;0;-;1
SUDESTE;35;SP;355390;TARABAI;2;100%;2
SUDESTE;35;SP;355410;TAUBATE;71;48.63%;146
SUDESTE;35;SP;355480;TREMEMBE;1;14.29%;7
SUDESTE;35;SP;355520;TURIUBA;3;50%;6
SUDESTE;35;SP;355535;UBARANA;4;57.14%;7
SUDESTE;35;SP;355580;URANIA;25;36.23%;69
SUDESTE;35;SP;355600;URUPES;11;34.38%;32
SUDESTE;35;SP;355630;VALPARAISO;3;60%;5
SUDESTE;35;SP;355640;VARGEM GRANDE DO SUL;1;100%;1
