﻿SUDESTE;35;SP;350010;ADAMANTINA;2;100%;2
SUDESTE;35;SP;350030;AGUAI;7;70%;10
SUDESTE;35;SP;350055;AGUAS DE SANTA BARBARA;0;-;3
SUDESTE;35;SP;350080;ALFREDO MARCONDES;5;100%;5
SUDESTE;35;SP;350120;ALVARES FLORENCE;64;92.75%;69
SUDESTE;35;SP;350240;ANHUMAS;0;-;17
SUDESTE;35;SP;350280;ARACATUBA;0;-;51
SUDESTE;35;SP;350310;ARANDU;0;-;2
SUDESTE;35;SP;350315;ARAPEI;0;-;22
SUDESTE;35;SP;350330;ARARAS;0;-;30
SUDESTE;35;SP;350390;ARUJA;0;-;198
SUDESTE;35;SP;350400;ASSIS;0;-;7
SUDESTE;35;SP;350420;AURIFLAMA;6;100%;6
SUDESTE;35;SP;350500;BARAO DE ANTONINA;0;-;1
SUDESTE;35;SP;350520;BARIRI;0;-;19
SUDESTE;35;SP;350550;BARRETOS;0;-;22
SUDESTE;35;SP;350580;BASTOS;0;-;5
SUDESTE;35;SP;350600;BAURU;74;27.51%;269
SUDESTE;35;SP;350610;BEBEDOURO;3;100%;3
SUDESTE;35;SP;350750;BOTUCATU;0;-;101
SUDESTE;35;SP;350820;BURITIZAL;0;-;24
SUDESTE;35;SP;350850;CACAPAVA;1;0.28%;356
SUDESTE;35;SP;350870;CACONDE;0;-;61
SUDESTE;35;SP;350940;CAJURU;0;-;1
SUDESTE;35;SP;350970;CAMPOS DO JORDAO;0;-;35
SUDESTE;35;SP;350980;CAMPOS NOVOS PAULISTA;0;-;11
SUDESTE;35;SP;351000;CANDIDO MOTA;0;-;30
SUDESTE;35;SP;351020;CAPAO BONITO;5;100%;5
SUDESTE;35;SP;351040;CAPIVARI;0;-;122
SUDESTE;35;SP;351050;CARAGUATATUBA;229;92.71%;247
SUDESTE;35;SP;351220;CONCHAL;0;-;9
SUDESTE;35;SP;351370;DESCALVADO;150;97.4%;154
SUDESTE;35;SP;351380;DIADEMA;39;7.16%;545
SUDESTE;35;SP;351390;DIVINOLANDIA;0;-;63
SUDESTE;35;SP;351440;DRACENA;30;81.08%;37
SUDESTE;35;SP;351500;EMBU DAS ARTES;19;35.85%;53
SUDESTE;35;SP;351512;EMILIANOPOLIS;0;-;12
SUDESTE;35;SP;351518;ESPIRITO SANTO DO PINHAL;32;88.89%;36
SUDESTE;35;SP;355730;ESTIVA GERBI;0;-;36
SUDESTE;35;SP;351535;EUCLIDES DA CUNHA PAULISTA;0;-;4
SUDESTE;35;SP;351540;FARTURA;4;66.67%;6
SUDESTE;35;SP;351700;GETULINA;1;100%;1
SUDESTE;35;SP;351710;GLICERIO;0;-;5
SUDESTE;35;SP;351740;GUAIRA;0;-;1
SUDESTE;35;SP;351750;GUAPIACU;0;-;11
SUDESTE;35;SP;351790;GUARACI;0;-;43
SUDESTE;35;SP;351800;GUARANI D'OESTE;19;63.33%;30
SUDESTE;35;SP;351840;GUARATINGUETA;0;-;1
SUDESTE;35;SP;351870;GUARUJA;0;-;4
SUDESTE;35;SP;351880;GUARULHOS;0;-;281
SUDESTE;35;SP;351925;IARAS;0;-;6
SUDESTE;35;SP;352020;IGARATA;199;99%;201
SUDESTE;35;SP;352042;ILHA COMPRIDA;1;50%;2
SUDESTE;35;SP;352040;ILHABELA;0;-;4
SUDESTE;35;SP;352190;ITAJOBI;0;-;4
SUDESTE;35;SP;352220;ITAPECERICA DA SERRA;0;-;2
SUDESTE;35;SP;352250;ITAPEVI;0;-;1
SUDESTE;35;SP;352260;ITAPIRA;1;2.22%;45
SUDESTE;35;SP;352310;ITAQUAQUECETUBA;0;-;6
SUDESTE;35;SP;352320;ITARARE;0;-;3
SUDESTE;35;SP;352430;JABOTICABAL;18;85.71%;21
SUDESTE;35;SP;352440;JACAREI;0;-;2
SUDESTE;35;SP;352510;JARDINOPOLIS;0;-;75
SUDESTE;35;SP;352530;JAU;2;100%;2
SUDESTE;35;SP;352550;JOANOPOLIS;36;100%;36
SUDESTE;35;SP;352570;JOSE BONIFACIO;0;-;20
SUDESTE;35;SP;352670;LEME;23;8.55%;269
SUDESTE;35;SP;352690;LIMEIRA;111;88.1%;126
SUDESTE;35;SP;352720;LORENA;0;-;152
SUDESTE;35;SP;352725;LOURDES;0;-;1
SUDESTE;35;SP;352760;LUIS ANTONIO;0;-;17
SUDESTE;35;SP;352810;MACAUBAL;0;-;31
SUDESTE;35;SP;352885;MARAPOAMA;0;-;1
SUDESTE;35;SP;352900;MARILIA;24;7.55%;318
SUDESTE;35;SP;352910;MARINOPOLIS;0;-;28
SUDESTE;35;SP;352920;MARTINOPOLIS;6;100%;6
SUDESTE;35;SP;352940;MAUA;122;99.19%;123
SUDESTE;35;SP;353020;MIRANTE DO PARANAPANEMA;0;-;89
SUDESTE;35;SP;353050;MOCOCA;0;-;80
SUDESTE;35;SP;353070;MOGI GUACU;0;-;265
SUDESTE;35;SP;353080;MOGI MIRIM;18;100%;18
SUDESTE;35;SP;353130;MONTE ALTO;10;52.63%;19
SUDESTE;35;SP;353160;MONTE CASTELO;46;90.2%;51
SUDESTE;35;SP;353260;NHANDEARA;9;100%;9
SUDESTE;35;SP;353286;NOVA CASTILHO;0;-;41
SUDESTE;35;SP;353390;OLIMPIA;0;-;116
SUDESTE;35;SP;353420;ORINDIUVA;0;-;26
SUDESTE;35;SP;353430;ORLANDIA;1;100%;1
SUDESTE;35;SP;353440;OSASCO;0;-;2
SUDESTE;35;SP;353450;OSCAR BRESSANE;1;100%;1
SUDESTE;35;SP;353475;OUROESTE;0;-;172
SUDESTE;35;SP;353550;PARAGUACU PAULISTA;6;85.71%;7
SUDESTE;35;SP;353560;PARAIBUNA;0;-;6
SUDESTE;35;SP;353620;PARIQUERA-ACU;0;-;5
SUDESTE;35;SP;353640;PAULICEIA;164;78.1%;210
SUDESTE;35;SP;353780;PIEDADE;118;89.39%;132
SUDESTE;35;SP;353870;PIRACICABA;67;57.76%;116
SUDESTE;35;SP;353930;PIRASSUNUNGA;42;27.27%;154
SUDESTE;35;SP;353940;PIRATININGA;26;76.47%;34
SUDESTE;35;SP;353970;PLATINA;0;-;25
SUDESTE;35;SP;354000;POMPEIA;0;-;172
SUDESTE;35;SP;354110;PRESIDENTE ALVES;25;96.15%;26
SUDESTE;35;SP;354140;PRESIDENTE PRUDENTE;0;-;97
SUDESTE;35;SP;354150;PRESIDENTE VENCESLAU;3;75%;4
SUDESTE;35;SP;354170;QUATA;3;10.34%;29
SUDESTE;35;SP;354210;RAFARD;0;-;1
SUDESTE;35;SP;354260;REGISTRO;0;-;6
SUDESTE;35;SP;354270;RESTINGA;0;-;8
SUDESTE;35;SP;354320;RIBEIRAO DO SUL;28;59.57%;47
SUDESTE;35;SP;354340;RIBEIRAO PRETO;1260;97.45%;1.293
SUDESTE;35;SP;354420;RIOLANDIA;0;-;4
SUDESTE;35;SP;354425;ROSANA;8;100%;8
SUDESTE;35;SP;354520;SALTO;0;-;8
SUDESTE;35;SP;354580;SANTA BARBARA D'OESTE;0;-;20
SUDESTE;35;SP;354600;SANTA BRANCA;1;50%;2
SUDESTE;35;SP;354630;SANTA CRUZ DAS PALMEIRAS;14;100%;14
SUDESTE;35;SP;354680;SANTA ISABEL;2;40%;5
SUDESTE;35;SP;354710;SANTA MERCEDES;3;14.29%;21
SUDESTE;35;SP;354730;SANTANA DE PARNAIBA;5;10.87%;46
SUDESTE;35;SP;354770;SANTO ANASTACIO;1;100%;1
SUDESTE;35;SP;354780;SANTO ANDRE;0;-;1
SUDESTE;35;SP;354790;SANTO ANTONIO DA ALEGRIA;0;-;5
SUDESTE;35;SP;354830;SANTO EXPEDITO;6;100%;6
SUDESTE;35;SP;354840;SANTOPOLIS DO AGUAPEI;0;-;1
SUDESTE;35;SP;354860;SAO BENTO DO SAPUCAI;29;90.63%;32
SUDESTE;35;SP;354890;SAO CARLOS;0;-;12
SUDESTE;35;SP;354925;SAO JOAO DE IRACEMA;0;-;1
SUDESTE;35;SP;354960;SAO JOSE DO BARREIRO;0;-;6
SUDESTE;35;SP;354970;SAO JOSE DO RIO PARDO;0;-;1
SUDESTE;35;SP;354980;SAO JOSE DO RIO PRETO;183;98.92%;185
SUDESTE;35;SP;354990;SAO JOSE DOS CAMPOS;6;66.67%;9
SUDESTE;35;SP;355010;SAO MANUEL;2;100%;2
SUDESTE;35;SP;355060;SAO ROQUE;57;93.44%;61
SUDESTE;35;SP;355090;SAO SIMAO;246;94.25%;261
SUDESTE;35;SP;355130;SEBASTIANOPOLIS DO SUL;0;-;1
SUDESTE;35;SP;355150;SERRANA;3;75%;4
SUDESTE;35;SP;355170;SERTAOZINHO;0;-;1
SUDESTE;35;SP;355230;SUD MENNUCCI;1;100%;1
SUDESTE;35;SP;355255;SUZANAPOLIS;5;50%;10
SUDESTE;35;SP;355280;TABOAO DA SERRA;0;-;6
SUDESTE;35;SP;355300;TAGUAI;111;94.87%;117
SUDESTE;35;SP;355320;TAIUVA;0;-;1
SUDESTE;35;SP;355360;TAPIRATIBA;0;-;20
SUDESTE;35;SP;355410;TAUBATE;180;93.75%;192
SUDESTE;35;SP;355430;TEODORO SAMPAIO;0;-;22
SUDESTE;35;SP;355480;TREMEMBE;28;90.32%;31
SUDESTE;35;SP;355520;TURIUBA;0;-;26
SUDESTE;35;SP;355550;UBIRAJARA;0;-;1
SUDESTE;35;SP;355580;URANIA;0;-;26
SUDESTE;35;SP;355640;VARGEM GRANDE DO SUL;0;-;5
SUDESTE;35;SP;355710;VOTUPORANGA;0;-;99
