﻿SUDESTE;35;SP;350010;ADAMANTINA;8;72.73%;11
SUDESTE;35;SP;350050;AGUAS DE LINDOIA;2;7.69%;26
SUDESTE;35;SP;350080;ALFREDO MARCONDES;7;50%;14
SUDESTE;35;SP;350240;ANHUMAS;0;-;3
SUDESTE;35;SP;350280;ARACATUBA;131;48.88%;268
SUDESTE;35;SP;350315;ARAPEI;5;83.33%;6
SUDESTE;35;SP;350360;AREIOPOLIS;1;25%;4
SUDESTE;35;SP;350570;BARUERI;0;-;17
SUDESTE;35;SP;350580;BASTOS;4;57.14%;7
SUDESTE;35;SP;350600;BAURU;129;55.84%;231
SUDESTE;35;SP;350610;BEBEDOURO;1;100%;1
SUDESTE;35;SP;350650;BIRIGUI;128;48.12%;266
SUDESTE;35;SP;350900;CAIEIRAS;2;100%;2
SUDESTE;35;SP;351050;CARAGUATATUBA;4;66.67%;6
SUDESTE;35;SP;351370;DESCALVADO;18;43.9%;41
SUDESTE;35;SP;351380;DIADEMA;163;67.08%;243
SUDESTE;35;SP;351500;EMBU DAS ARTES;31;73.81%;42
SUDESTE;35;SP;351518;ESPIRITO SANTO DO PINHAL;15;68.18%;22
SUDESTE;35;SP;351880;GUARULHOS;0;-;193
SUDESTE;35;SP;351960;IBITINGA;2;50%;4
SUDESTE;35;SP;352000;IGARACU DO TIETE;34;46.58%;73
SUDESTE;35;SP;352020;IGARATA;0;-;1
SUDESTE;35;SP;352090;IPAUSSU;4;19.05%;21
SUDESTE;35;SP;352250;ITAPEVI;11;42.31%;26
SUDESTE;35;SP;352260;ITAPIRA;46;82.14%;56
SUDESTE;35;SP;352310;ITAQUAQUECETUBA;12;100%;12
SUDESTE;35;SP;352440;JACAREI;0;-;1
SUDESTE;35;SP;352530;JAU;1;50%;2
SUDESTE;35;SP;352560;JOAO RAMALHO;0;-;3
SUDESTE;35;SP;352570;JOSE BONIFACIO;1;25%;4
SUDESTE;35;SP;352590;JUNDIAI;0;-;1
SUDESTE;35;SP;352670;LEME;7;25%;28
SUDESTE;35;SP;352690;LIMEIRA;5;83.33%;6
SUDESTE;35;SP;352810;MACAUBAL;0;-;1
SUDESTE;35;SP;352850;MAIRIPORA;2;11.76%;17
SUDESTE;35;SP;352900;MARILIA;6;66.67%;9
SUDESTE;35;SP;352920;MARTINOPOLIS;6;17.14%;35
SUDESTE;35;SP;352930;MATAO;1;100%;1
SUDESTE;35;SP;352940;MAUA;28;71.79%;39
SUDESTE;35;SP;353070;MOGI GUACU;1;50%;2
SUDESTE;35;SP;353080;MOGI MIRIM;241;81.69%;295
SUDESTE;35;SP;353360;NUPORANGA;12;57.14%;21
SUDESTE;35;SP;353420;ORINDIUVA;0;-;1
SUDESTE;35;SP;353430;ORLANDIA;11;29.73%;37
SUDESTE;35;SP;353440;OSASCO;24;80%;30
SUDESTE;35;SP;353550;PARAGUACU PAULISTA;5;62.5%;8
SUDESTE;35;SP;353780;PIEDADE;0;-;2
SUDESTE;35;SP;353800;PINDAMONHANGABA;0;-;1
SUDESTE;35;SP;353870;PIRACICABA;15;37.5%;40
SUDESTE;35;SP;353890;PIRAJUI;0;-;3
SUDESTE;35;SP;353940;PIRATININGA;4;80%;5
SUDESTE;35;SP;354000;POMPEIA;0;-;18
SUDESTE;35;SP;354330;RIBEIRAO PIRES;5;100%;5
SUDESTE;35;SP;354340;RIBEIRAO PRETO;723;61.27%;1.180
SUDESTE;35;SP;354630;SANTA CRUZ DAS PALMEIRAS;93;55.03%;169
SUDESTE;35;SP;354680;SANTA ISABEL;8;53.33%;15
SUDESTE;35;SP;354790;SANTO ANTONIO DA ALEGRIA;13;81.25%;16
SUDESTE;35;SP;354970;SAO JOSE DO RIO PARDO;0;-;9
SUDESTE;35;SP;354990;SAO JOSE DOS CAMPOS;57;58.76%;97
SUDESTE;35;SP;355010;SAO MANUEL;1;100%;1
SUDESTE;35;SP;355030;SAO PAULO;5;62.5%;8
SUDESTE;35;SP;355060;SAO ROQUE;60;57.69%;104
SUDESTE;35;SP;355140;SERRA AZUL;6;75%;8
SUDESTE;35;SP;355170;SERTAOZINHO;11;44%;25
SUDESTE;35;SP;355280;TABOAO DA SERRA;10;100%;10
SUDESTE;35;SP;355300;TAGUAI;33;42.31%;78
SUDESTE;35;SP;355395;TARUMA;8;53.33%;15
SUDESTE;35;SP;355400;TATUI;1;100%;1
SUDESTE;35;SP;355410;TAUBATE;29;61.7%;47
SUDESTE;35;SP;355480;TREMEMBE;0;-;2
SUDESTE;35;SP;355650;VARZEA PAULISTA;3;100%;3
SUDESTE;35;SP;355710;VOTUPORANGA;2;50%;4
