﻿SUDESTE;35;SP;350010;ADAMANTINA;15;83.33%;18
SUDESTE;35;SP;350050;AGUAS DE LINDOIA;5;9.26%;54
SUDESTE;35;SP;350080;ALFREDO MARCONDES;4;44.44%;9
SUDESTE;35;SP;350210;ANDRADINA;1;100%;1
SUDESTE;35;SP;350280;ARACATUBA;37;38.54%;96
SUDESTE;35;SP;350330;ARARAS;5;62.5%;8
SUDESTE;35;SP;350350;AREIAS;7;58.33%;12
SUDESTE;35;SP;350360;AREIOPOLIS;4;26.67%;15
SUDESTE;35;SP;350390;ARUJA;0;-;1
SUDESTE;35;SP;350400;ASSIS;0;-;1
SUDESTE;35;SP;350570;BARUERI;0;-;28
SUDESTE;35;SP;350580;BASTOS;2;13.33%;15
SUDESTE;35;SP;350600;BAURU;152;58.46%;260
SUDESTE;35;SP;350850;CACAPAVA;1;50%;2
SUDESTE;35;SP;350950;CAMPINAS;0;-;1
SUDESTE;35;SP;350970;CAMPOS DO JORDAO;31;73.81%;42
SUDESTE;35;SP;351000;CANDIDO MOTA;3;42.86%;7
SUDESTE;35;SP;351020;CAPAO BONITO;2;100%;2
SUDESTE;35;SP;351040;CAPIVARI;4;50%;8
SUDESTE;35;SP;351050;CARAGUATATUBA;21;84%;25
SUDESTE;35;SP;351130;CEDRAL;4;50%;8
SUDESTE;35;SP;351280;COSMOPOLIS;12;70.59%;17
SUDESTE;35;SP;351370;DESCALVADO;7;31.82%;22
SUDESTE;35;SP;351380;DIADEMA;472;60.05%;786
SUDESTE;35;SP;351500;EMBU DAS ARTES;148;62.45%;237
SUDESTE;35;SP;351518;ESPIRITO SANTO DO PINHAL;21;75%;28
SUDESTE;35;SP;351550;FERNANDOPOLIS;3;75%;4
SUDESTE;35;SP;351870;GUARUJA;26;45.61%;57
SUDESTE;35;SP;351880;GUARULHOS;0;-;436
SUDESTE;35;SP;351960;IBITINGA;4;36.36%;11
SUDESTE;35;SP;352090;IPAUSSU;15;32.61%;46
SUDESTE;35;SP;352130;IPUA;37;100%;37
SUDESTE;35;SP;352160;IRAPURU;1;100%;1
SUDESTE;35;SP;352220;ITAPECERICA DA SERRA;2;66.67%;3
SUDESTE;35;SP;352250;ITAPEVI;11;32.35%;34
SUDESTE;35;SP;352260;ITAPIRA;84;77.78%;108
SUDESTE;35;SP;352310;ITAQUAQUECETUBA;29;67.44%;43
SUDESTE;35;SP;352410;ITUVERAVA;2;50%;4
SUDESTE;35;SP;352440;JACAREI;1;100%;1
SUDESTE;35;SP;352570;JOSE BONIFACIO;2;50%;4
SUDESTE;35;SP;352670;LEME;11;50%;22
SUDESTE;35;SP;352690;LIMEIRA;21;91.3%;23
SUDESTE;35;SP;352720;LORENA;0;-;1
SUDESTE;35;SP;352840;MAIRINQUE;2;66.67%;3
SUDESTE;35;SP;352850;MAIRIPORA;4;26.67%;15
SUDESTE;35;SP;352900;MARILIA;15;60%;25
SUDESTE;35;SP;352920;MARTINOPOLIS;14;87.5%;16
SUDESTE;35;SP;352940;MAUA;26;83.87%;31
SUDESTE;35;SP;353000;MIRA ESTRELA;1;100%;1
SUDESTE;35;SP;353020;MIRANTE DO PARANAPANEMA;0;-;1
SUDESTE;35;SP;353060;MOGI DAS CRUZES;2;50%;4
SUDESTE;35;SP;353070;MOGI GUACU;12;80%;15
SUDESTE;35;SP;353080;MOGI MIRIM;414;78.11%;530
SUDESTE;35;SP;353290;NOVA EUROPA;4;100%;4
SUDESTE;35;SP;353360;NUPORANGA;35;72.92%;48
SUDESTE;35;SP;353420;ORINDIUVA;1;25%;4
SUDESTE;35;SP;353430;ORLANDIA;16;27.12%;59
SUDESTE;35;SP;353440;OSASCO;240;71.22%;337
SUDESTE;35;SP;353475;OUROESTE;11;36.67%;30
SUDESTE;35;SP;353550;PARAGUACU PAULISTA;7;46.67%;15
SUDESTE;35;SP;353600;PARAPUA;1;100%;1
SUDESTE;35;SP;353780;PIEDADE;3;33.33%;9
SUDESTE;35;SP;353800;PINDAMONHANGABA;4;80%;5
SUDESTE;35;SP;353870;PIRACICABA;69;58.47%;118
SUDESTE;35;SP;353890;PIRAJUI;3;27.27%;11
SUDESTE;35;SP;353930;PIRASSUNUNGA;0;-;3
SUDESTE;35;SP;353940;PIRATININGA;4;57.14%;7
SUDESTE;35;SP;353970;PLATINA;1;16.67%;6
SUDESTE;35;SP;354000;POMPEIA;0;-;34
SUDESTE;35;SP;354100;PRAIA GRANDE;4;100%;4
SUDESTE;35;SP;354200;QUINTANA;0;-;2
SUDESTE;35;SP;354340;RIBEIRAO PRETO;882;65.63%;1.344
SUDESTE;35;SP;354630;SANTA CRUZ DAS PALMEIRAS;119;65.03%;183
SUDESTE;35;SP;354680;SANTA ISABEL;12;75%;16
SUDESTE;35;SP;354740;SANTA RITA D'OESTE;0;-;1
SUDESTE;35;SP;354790;SANTO ANTONIO DA ALEGRIA;1;100%;1
SUDESTE;35;SP;354840;SANTOPOLIS DO AGUAPEI;1;50%;2
SUDESTE;35;SP;354870;SAO BERNARDO DO CAMPO;1;100%;1
SUDESTE;35;SP;354890;SAO CARLOS;3;42.86%;7
SUDESTE;35;SP;354960;SAO JOSE DO BARREIRO;0;-;1
SUDESTE;35;SP;354970;SAO JOSE DO RIO PARDO;1;25%;4
SUDESTE;35;SP;354980;SAO JOSE DO RIO PRETO;46;79.31%;58
SUDESTE;35;SP;354990;SAO JOSE DOS CAMPOS;29;87.88%;33
SUDESTE;35;SP;355030;SAO PAULO;23;43.4%;53
SUDESTE;35;SP;355050;SAO PEDRO DO TURVO;0;-;3
SUDESTE;35;SP;355060;SAO ROQUE;91;50.28%;181
SUDESTE;35;SP;355080;SAO SEBASTIAO DA GRAMA;1;100%;1
SUDESTE;35;SP;355100;SAO VICENTE;1;100%;1
SUDESTE;35;SP;355140;SERRA AZUL;1;50%;2
SUDESTE;35;SP;355170;SERTAOZINHO;33;73.33%;45
SUDESTE;35;SP;355280;TABOAO DA SERRA;6;75%;8
SUDESTE;35;SP;355300;TAGUAI;21;45.65%;46
SUDESTE;35;SP;355320;TAIUVA;2;50%;4
SUDESTE;35;SP;355395;TARUMA;7;30.43%;23
SUDESTE;35;SP;355410;TAUBATE;47;55.95%;84
SUDESTE;35;SP;355580;URANIA;1;50%;2
SUDESTE;35;SP;355650;VARZEA PAULISTA;8;66.67%;12
SUDESTE;35;SP;355710;VOTUPORANGA;47;55.95%;84
