﻿SUDESTE;35;SP;350050;AGUAS DE LINDOIA;0;-;1
SUDESTE;35;SP;350080;ALFREDO MARCONDES;0;-;21
SUDESTE;35;SP;350120;ALVARES FLORENCE;3;75%;4
SUDESTE;35;SP;350140;ALVARO DE CARVALHO;0;-;2
SUDESTE;35;SP;350240;ANHUMAS;0;-;2
SUDESTE;35;SP;350315;ARAPEI;0;-;16
SUDESTE;35;SP;350330;ARARAS;0;-;7
SUDESTE;35;SP;350390;ARUJA;0;-;187
SUDESTE;35;SP;350400;ASSIS;0;-;9
SUDESTE;35;SP;350510;BARBOSA;0;-;2
SUDESTE;35;SP;350520;BARIRI;0;-;9
SUDESTE;35;SP;350570;BARUERI;16;100%;16
SUDESTE;35;SP;350580;BASTOS;0;-;4
SUDESTE;35;SP;350600;BAURU;121;46.18%;262
SUDESTE;35;SP;350610;BEBEDOURO;2;100%;2
SUDESTE;35;SP;350730;BORACEIA;0;-;13
SUDESTE;35;SP;350750;BOTUCATU;0;-;81
SUDESTE;35;SP;350780;BRODOWSKI;0;-;98
SUDESTE;35;SP;350820;BURITIZAL;0;-;16
SUDESTE;35;SP;350850;CACAPAVA;0;-;349
SUDESTE;35;SP;350860;CACHOEIRA PAULISTA;0;-;8
SUDESTE;35;SP;350870;CACONDE;0;-;1
SUDESTE;35;SP;350940;CAJURU;0;-;2
SUDESTE;35;SP;350970;CAMPOS DO JORDAO;0;-;119
SUDESTE;35;SP;351000;CANDIDO MOTA;0;-;4
SUDESTE;35;SP;351020;CAPAO BONITO;5;100%;5
SUDESTE;35;SP;351040;CAPIVARI;0;-;104
SUDESTE;35;SP;351050;CARAGUATATUBA;315;94.59%;333
SUDESTE;35;SP;351130;CEDRAL;0;-;18
SUDESTE;35;SP;351280;COSMOPOLIS;17;50%;34
SUDESTE;35;SP;351330;CRUZALIA;0;-;3
SUDESTE;35;SP;351350;CUBATAO;0;-;1
SUDESTE;35;SP;351370;DESCALVADO;148;94.87%;156
SUDESTE;35;SP;351380;DIADEMA;0;-;1.306
SUDESTE;35;SP;351492;ELISIARIO;0;-;1
SUDESTE;35;SP;351512;EMILIANOPOLIS;0;-;2
SUDESTE;35;SP;351518;ESPIRITO SANTO DO PINHAL;12;100%;12
SUDESTE;35;SP;355730;ESTIVA GERBI;0;-;4
SUDESTE;35;SP;351550;FERNANDOPOLIS;0;-;2
SUDESTE;35;SP;351710;GLICERIO;0;-;1
SUDESTE;35;SP;351740;GUAIRA;0;-;1
SUDESTE;35;SP;351750;GUAPIACU;0;-;3
SUDESTE;35;SP;351770;GUARA;0;-;1
SUDESTE;35;SP;351790;GUARACI;0;-;7
SUDESTE;35;SP;351800;GUARANI D'OESTE;1;3.13%;32
SUDESTE;35;SP;351850;GUAREI;0;-;1
SUDESTE;35;SP;351880;GUARULHOS;0;-;67
SUDESTE;35;SP;352020;IGARATA;126;99.21%;127
SUDESTE;35;SP;352042;ILHA COMPRIDA;1;100%;1
SUDESTE;35;SP;352040;ILHABELA;0;-;5
SUDESTE;35;SP;352090;IPAUSSU;81;77.14%;105
SUDESTE;35;SP;352190;ITAJOBI;0;-;1
SUDESTE;35;SP;352250;ITAPEVI;0;-;4
SUDESTE;35;SP;352260;ITAPIRA;0;-;39
SUDESTE;35;SP;352420;JABORANDI;0;-;1
SUDESTE;35;SP;352510;JARDINOPOLIS;0;-;43
SUDESTE;35;SP;352520;JARINU;0;-;3
SUDESTE;35;SP;352550;JOANOPOLIS;16;94.12%;17
SUDESTE;35;SP;352570;JOSE BONIFACIO;0;-;7
SUDESTE;35;SP;352670;LEME;0;-;104
SUDESTE;35;SP;352690;LIMEIRA;40;78.43%;51
SUDESTE;35;SP;352720;LORENA;1;1.15%;87
SUDESTE;35;SP;352760;LUIS ANTONIO;0;-;7
SUDESTE;35;SP;352810;MACAUBAL;0;-;70
SUDESTE;35;SP;352820;MACEDONIA;0;-;3
SUDESTE;35;SP;352850;MAIRIPORA;0;-;1
SUDESTE;35;SP;352900;MARILIA;0;-;108
SUDESTE;35;SP;352910;MARINOPOLIS;0;-;23
SUDESTE;35;SP;352920;MARTINOPOLIS;3;100%;3
SUDESTE;35;SP;352940;MAUA;133;100%;133
SUDESTE;35;SP;353020;MIRANTE DO PARANAPANEMA;0;-;5
SUDESTE;35;SP;353050;MOCOCA;0;-;62
SUDESTE;35;SP;353070;MOGI GUACU;0;-;63
SUDESTE;35;SP;353080;MOGI MIRIM;1;3.03%;33
SUDESTE;35;SP;353130;MONTE ALTO;0;-;1
SUDESTE;35;SP;353160;MONTE CASTELO;43;100%;43
SUDESTE;35;SP;353260;NHANDEARA;3;100%;3
SUDESTE;35;SP;353286;NOVA CASTILHO;0;-;39
SUDESTE;35;SP;353290;NOVA EUROPA;0;-;3
SUDESTE;35;SP;353360;NUPORANGA;0;-;26
SUDESTE;35;SP;353420;ORINDIUVA;0;-;26
SUDESTE;35;SP;353440;OSASCO;0;-;13
SUDESTE;35;SP;353475;OUROESTE;0;-;121
SUDESTE;35;SP;353490;PACAEMBU;2;100%;2
SUDESTE;35;SP;353550;PARAGUACU PAULISTA;2;100%;2
SUDESTE;35;SP;353600;PARAPUA;6;75%;8
SUDESTE;35;SP;353620;PARIQUERA-ACU;0;-;7
SUDESTE;35;SP;353640;PAULICEIA;0;-;204
SUDESTE;35;SP;353730;PENAPOLIS;0;-;1
SUDESTE;35;SP;353780;PIEDADE;35;71.43%;49
SUDESTE;35;SP;353800;PINDAMONHANGABA;0;-;1
SUDESTE;35;SP;353830;PIQUEROBI;0;-;7
SUDESTE;35;SP;353870;PIRACICABA;57;63.33%;90
SUDESTE;35;SP;353890;PIRAJUI;0;-;5
SUDESTE;35;SP;353930;PIRASSUNUNGA;0;-;113
SUDESTE;35;SP;353940;PIRATININGA;30;90.91%;33
SUDESTE;35;SP;353970;PLATINA;0;-;16
SUDESTE;35;SP;354000;POMPEIA;0;-;244
SUDESTE;35;SP;354110;PRESIDENTE ALVES;1;100%;1
SUDESTE;35;SP;354170;QUATA;0;-;1
SUDESTE;35;SP;354220;RANCHARIA;0;-;4
SUDESTE;35;SP;354260;REGISTRO;0;-;1
SUDESTE;35;SP;354280;RIBEIRA;1;100%;1
SUDESTE;35;SP;354320;RIBEIRAO DO SUL;0;-;5
SUDESTE;35;SP;354325;RIBEIRAO GRANDE;0;-;17
SUDESTE;35;SP;354340;RIBEIRAO PRETO;284;30.34%;936
SUDESTE;35;SP;354370;RINCAO;0;-;1
SUDESTE;35;SP;354425;ROSANA;0;-;17
SUDESTE;35;SP;354580;SANTA BARBARA D'OESTE;0;-;5
SUDESTE;35;SP;354600;SANTA BRANCA;1;100%;1
SUDESTE;35;SP;354630;SANTA CRUZ DAS PALMEIRAS;22;100%;22
SUDESTE;35;SP;354660;SANTA FE DO SUL;0;-;151
SUDESTE;35;SP;354710;SANTA MERCEDES;2;5.71%;35
SUDESTE;35;SP;354730;SANTANA DE PARNAIBA;0;-;10
SUDESTE;35;SP;354780;SANTO ANDRE;0;-;1
SUDESTE;35;SP;354790;SANTO ANTONIO DA ALEGRIA;0;-;2
SUDESTE;35;SP;354860;SAO BENTO DO SAPUCAI;41;83.67%;49
SUDESTE;35;SP;354890;SAO CARLOS;0;-;6
SUDESTE;35;SP;354925;SAO JOAO DE IRACEMA;0;-;40
SUDESTE;35;SP;354960;SAO JOSE DO BARREIRO;0;-;1
SUDESTE;35;SP;354970;SAO JOSE DO RIO PARDO;0;-;36
SUDESTE;35;SP;354980;SAO JOSE DO RIO PRETO;59;98.33%;60
SUDESTE;35;SP;355010;SAO MANUEL;1;50%;2
SUDESTE;35;SP;355020;SAO MIGUEL ARCANJO;0;-;1
SUDESTE;35;SP;355050;SAO PEDRO DO TURVO;0;-;5
SUDESTE;35;SP;355060;SAO ROQUE;6;2.49%;241
SUDESTE;35;SP;355090;SAO SIMAO;68;62.96%;108
SUDESTE;35;SP;355100;SAO VICENTE;28;68.29%;41
SUDESTE;35;SP;355170;SERTAOZINHO;9;100%;9
SUDESTE;35;SP;355255;SUZANAPOLIS;0;-;1
SUDESTE;35;SP;355280;TABOAO DA SERRA;0;-;3
SUDESTE;35;SP;355300;TAGUAI;19;17.27%;110
SUDESTE;35;SP;355320;TAIUVA;0;-;39
SUDESTE;35;SP;355330;TAMBAU;0;-;1
SUDESTE;35;SP;355395;TARUMA;0;-;100
SUDESTE;35;SP;355410;TAUBATE;104;97.2%;107
SUDESTE;35;SP;355480;TREMEMBE;3;50%;6
SUDESTE;35;SP;355520;TURIUBA;0;-;4
SUDESTE;35;SP;355580;URANIA;0;-;7
SUDESTE;35;SP;355635;VARGEM;0;-;7
SUDESTE;35;SP;355680;VIRADOURO;0;-;6
SUDESTE;35;SP;355710;VOTUPORANGA;7;1.58%;443
